,name,category,isC,isC++,hasAssembly,assemblyInLine,hasDynamicLoading,.h,.S,.c,.s,.o,key,dlsym,__asm__,dlopen
0,language-pack-gnome-ja-18.04+20180423,0,False,False,False,False,False,0.0,0.0,0.0,0.0,0.0,0.0,0.0,0.0,0.0
1,language-pack-ru-18.04+20180423,0,False,False,False,False,False,0.0,0.0,0.0,0.0,0.0,0.0,0.0,0.0,0.0
2,python3-stdlib-extensions-3.6.5,0,True,False,False,False,False,6.0,0.0,6.0,0.0,0.0,value,0.0,0.0,0.0
3,language-pack-ug-base-18.04+20180423,0,False,False,False,False,False,0.0,0.0,0.0,0.0,0.0,0,0.0,0.0,0.0
4,language-pack-gnome-uk-18.04+20180423,0,False,False,False,False,False,0.0,0.0,0.0,0.0,0.0,0,0.0,0.0,0.0
5,language-pack-gnome-bs-18.04+20180423,0,False,False,False,False,False,0.0,0.0,0.0,0.0,0.0,0,0.0,0.0,0.0
6,lxcfs-3.0.0,0,True,False,False,False,True,2.0,0.0,6.0,0.0,0.0,value,19.0,0.0,29.0
7,language-pack-ku-18.04+20180423,0,False,False,False,False,False,0.0,0.0,0.0,0.0,0.0,0,0.0,0.0,0.0
8,language-pack-bg-18.04+20180423,0,False,False,False,False,False,0.0,0.0,0.0,0.0,0.0,0,0.0,0.0,0.0
9,language-pack-gnome-ko-18.04+20180423,0,False,False,False,False,False,0.0,0.0,0.0,0.0,0.0,0,0.0,0.0,0.0
10,language-pack-lt-18.04+20180423,0,False,False,False,False,False,0.0,0.0,0.0,0.0,0.0,0,0.0,0.0,0.0
11,language-pack-nl-base-18.04+20180423,0,False,False,False,False,False,0.0,0.0,0.0,0.0,0.0,0,0.0,0.0,0.0
12,language-pack-es-base-18.04+20180423,0,False,False,False,False,False,0.0,0.0,0.0,0.0,0.0,0,0.0,0.0,0.0
13,language-pack-tr-18.04+20180423,0,False,False,False,False,False,0.0,0.0,0.0,0.0,0.0,0,0.0,0.0,0.0
14,totem-3.26.0,0,True,False,False,False,False,61.0,0.0,82.0,0.0,0.0,value,0.0,0.0,0.0
15,bdf2psf,0,False,False,False,False,False,0.0,0.0,0.0,0.0,0.0,0,0.0,0.0,0.0
16,language-pack-gnome-bn-base-18.04+20180423,0,False,False,False,False,False,0.0,0.0,0.0,0.0,0.0,0,0.0,0.0,0.0
17,xapian-core_1.4.5.orig.tar.xz.asc,0,False,False,False,False,False,0.0,0.0,0.0,0.0,0.0,0,0.0,0.0,0.0
18,apt-utils,0,True,False,False,False,True,114.0,0.0,2.0,0.0,0.0,value,2.0,0.0,2.0
19,gnome-initial-setup-3.28.0,0,True,False,False,False,False,65.0,0.0,74.0,0.0,0.0,value,0.0,0.0,0.0
20,policykit-1-0.105,0,True,False,False,False,False,47.0,0.0,100.0,0.0,0.0,value,0.0,0.0,0.0
21,gnome-calculator-3.28.1,0,False,False,False,False,False,0.0,0.0,0.0,0.0,0.0,0,0.0,0.0,0.0
22,gstreamer1.0-1.14.0,0,True,False,False,True,True,198.0,0.0,308.0,0.0,0.0,value,0.0,2.0,1.0
23,language-pack-be-base-18.04+20180423,0,False,False,False,False,False,0.0,0.0,0.0,0.0,0.0,0,0.0,0.0,0.0
24,language-pack-kn-18.04+20180423,0,False,False,False,False,False,0.0,0.0,0.0,0.0,0.0,0,0.0,0.0,0.0
25,libsoup2.4-2.62.1,0,True,False,False,False,False,85.0,0.0,120.0,0.0,0.0,value,0.0,0.0,0.0
26,aodh-doc,0,False,False,False,False,False,0.0,0.0,0.0,0.0,0.0,0,0.0,0.0,0.0
27,language-pack-gnome-th-base-18.04+20180423,0,False,False,False,False,False,0.0,0.0,0.0,0.0,0.0,0,0.0,0.0,0.0
28,language-pack-te-base-18.04+20180423,0,False,False,False,False,False,0.0,0.0,0.0,0.0,0.0,0,0.0,0.0,0.0
29,language-pack-gnome-fa-18.04+20180423,0,False,False,False,False,False,0.0,0.0,0.0,0.0,0.0,0,0.0,0.0,0.0
30,cups-2.2.7,0,True,False,False,False,False,67.0,0.0,223.0,0.0,0.0,value,0.0,0.0,0.0
31,language-pack-hu-18.04+20180423,0,False,False,False,False,False,0.0,0.0,0.0,0.0,0.0,0,0.0,0.0,0.0
32,language-pack-gl-18.04+20180423,0,False,False,False,False,False,0.0,0.0,0.0,0.0,0.0,0,0.0,0.0,0.0
33,libmspack-0.6,0,True,False,False,True,False,22.0,0.0,35.0,0.0,0.0,value,0.0,1.0,0.0
34,apache2-bin,0,True,False,False,False,True,146.0,0.0,313.0,0.0,0.0,value,1.0,0.0,2.0
35,gnome-menus-3.13.3,0,True,False,False,False,False,7.0,0.0,11.0,0.0,0.0,value,0.0,0.0,0.0
36,valgrind-3.13.0,0,True,False,True,True,True,320.0,53.0,1217.0,53.0,0.0,value,6.0,11339.0,21.0
37,aodh-notifier,0,False,False,False,False,False,0.0,0.0,0.0,0.0,0.0,0,0.0,0.0,0.0
38,gnome-user-docs-3.28.1,0,False,False,False,False,False,0.0,0.0,0.0,0.0,0.0,0,0.0,0.0,0.0
39,cups_2.2.7.orig.tar.gz.asc,0,False,False,False,False,False,0.0,0.0,0.0,0.0,0.0,0,0.0,0.0,0.0
40,language-pack-an-18.04+20180423,0,False,False,False,False,False,0.0,0.0,0.0,0.0,0.0,0,0.0,0.0,0.0
41,networkd-dispatcher-1.7,0,False,False,False,False,False,0.0,0.0,0.0,0.0,0.0,0,0.0,0.0,0.0
42,language-pack-gnome-am-base-18.04+20180423,0,False,False,False,False,False,0.0,0.0,0.0,0.0,0.0,0,0.0,0.0,0.0
43,language-pack-is-base-18.04+20180423,0,False,False,False,False,False,0.0,0.0,0.0,0.0,0.0,0,0.0,0.0,0.0
44,language-pack-gnome-ru-base-18.04+20180423,0,False,False,False,False,False,0.0,0.0,0.0,0.0,0.0,0,0.0,0.0,0.0
45,lxml-4.2.1,0,True,False,False,False,False,7.0,0.0,6.0,0.0,0.0,value,0.0,0.0,0.0
46,apport-2.20.9,0,False,False,False,False,False,0.0,0.0,0.0,0.0,0.0,0,0.0,0.0,0.0
47,gpgme1.0_1.10.0.orig.tar.bz2,0,False,False,False,False,False,0.0,0.0,0.0,0.0,0.0,0,0.0,0.0,0.0
48,language-pack-gnome-lv-base-18.04+20180423,0,False,False,False,False,False,0.0,0.0,0.0,0.0,0.0,0,0.0,0.0,0.0
49,barbican-worker,0,False,False,False,False,False,0.0,0.0,0.0,0.0,0.0,0,0.0,0.0,0.0
50,language-pack-bn-18.04+20180423,0,False,False,False,False,False,0.0,0.0,0.0,0.0,0.0,0,0.0,0.0,0.0
51,ceph-base,0,True,False,True,True,True,2883.0,71.0,1590.0,71.0,1.0,value,23.0,70.0,54.0
52,language-pack-fur-base-18.04+20180423,0,False,False,False,False,False,0.0,0.0,0.0,0.0,0.0,0,0.0,0.0,0.0
53,language-pack-sk-base-18.04+20180423,0,False,False,False,False,False,0.0,0.0,0.0,0.0,0.0,0,0.0,0.0,0.0
54,thunderbird-52.7.0+build1,0,True,False,True,True,True,13452.0,223.0,3526.0,223.0,1.0,value,102.0,543.0,62.0
55,binutils-x86-64-kfreebsd-gnu,0,True,False,True,True,True,864.0,6167.0,1584.0,6167.0,0.0,value,25.0,166.0,42.0
56,zfs-linux-0.7.5,0,True,False,True,True,True,293.0,10.0,340.0,10.0,0.0,value,14.0,26.0,3.0
57,nginx-1.14.0,0,True,False,False,True,True,275.0,0.0,383.0,0.0,0.0,value,7.0,24.0,5.0
58,gnome-keyring-3.28.0.2,0,True,False,False,False,True,160.0,0.0,233.0,0.0,0.0,value,1.0,0.0,1.0
59,bluez,0,True,False,False,True,True,260.0,0.0,429.0,0.0,0.0,value,8.0,1.0,9.0
60,update-notifier-3.192,0,True,False,False,False,False,11.0,0.0,13.0,0.0,0.0,value,0.0,0.0,0.0
61,python3-defaults-3.6.5,0,False,False,False,False,False,0.0,0.0,0.0,0.0,0.0,0,0.0,0.0,0.0
62,man-db_2.8.3.orig.tar.xz.asc,0,False,False,False,False,False,0.0,0.0,0.0,0.0,0.0,0,0.0,0.0,0.0
63,nvidia-prime-0.8.8,0,False,False,False,False,False,0.0,0.0,0.0,0.0,0.0,0,0.0,0.0,0.0
64,openssl1.0_1.0.2n.orig.tar.gz.asc,0,False,False,False,False,False,0.0,0.0,0.0,0.0,0.0,0,0.0,0.0,0.0
65,gnome-shell-extension-ubuntu-dock-0.9.1,0,False,False,False,False,False,0.0,0.0,0.0,0.0,0.0,0,0.0,0.0,0.0
66,language-pack-gnome-eo-base-18.04+20180423,0,False,False,False,False,False,0.0,0.0,0.0,0.0,0.0,0,0.0,0.0,0.0
67,language-pack-he-base-18.04+20180423,0,False,False,False,False,False,0.0,0.0,0.0,0.0,0.0,0,0.0,0.0,0.0
68,binutils-2.30,0,True,False,True,True,True,864.0,6167.0,1584.0,6167.0,0.0,value,25.0,166.0,42.0
69,language-pack-gnome-ca-18.04+20180423,0,False,False,False,False,False,0.0,0.0,0.0,0.0,0.0,0,0.0,0.0,0.0
70,language-pack-gnome-da-base-18.04+20180423,0,False,False,False,False,False,0.0,0.0,0.0,0.0,0.0,0,0.0,0.0,0.0
71,spamassassin-3.4.1,0,True,False,False,False,False,4.0,0.0,7.0,0.0,0.0,value,0.0,0.0,0.0
72,lxc-3.0.0,0,True,False,False,False,False,58.0,0.0,117.0,0.0,0.0,value,0.0,0.0,0.0
73,ceilometer-agent-compute,0,False,False,False,False,False,0.0,0.0,0.0,0.0,0.0,0,0.0,0.0,0.0
74,gnome-system-monitor-3.28.1,0,True,False,False,False,False,27.0,0.0,4.0,0.0,0.0,value,0.0,0.0,0.0
75,python3.6-3.6.5,0,True,False,True,True,True,355.0,49.0,499.0,49.0,0.0,value,22.0,41.0,43.0
76,lcms2-2.9,0,True,False,False,False,False,11.0,0.0,47.0,0.0,0.0,value,0.0,0.0,0.0
77,language-pack-gnome-nb-base-18.04+20180423,0,False,False,False,False,False,0.0,0.0,0.0,0.0,0.0,0,0.0,0.0,0.0
78,binutils-i686-kfreebsd-gnu,0,True,False,True,True,True,864.0,6167.0,1584.0,6167.0,0.0,value,25.0,166.0,42.0
79,language-pack-gnome-an-base-18.04+20180423,0,False,False,False,False,False,0.0,0.0,0.0,0.0,0.0,0,0.0,0.0,0.0
80,brltty-5.5,0,True,False,False,True,True,268.0,0.0,335.0,0.0,0.0,value,2.0,2.0,2.0
81,language-pack-gnome-id-base-18.04+20180423,0,False,False,False,False,False,0.0,0.0,0.0,0.0,0.0,0,0.0,0.0,0.0
82,tmux-2.6,0,True,False,False,False,False,9.0,0.0,163.0,0.0,0.0,value,0.0,0.0,0.0
83,bluez-obexd,0,True,False,False,True,True,260.0,0.0,429.0,0.0,0.0,value,8.0,1.0,9.0
84,language-pack-ru-base-18.04+20180423,0,False,False,False,False,False,0.0,0.0,0.0,0.0,0.0,0,0.0,0.0,0.0
85,freeipmi-1.4.11,0,True,False,False,False,False,393.0,0.0,330.0,0.0,0.0,value,0.0,0.0,0.0
86,barbican-api,0,False,False,False,False,False,0.0,0.0,0.0,0.0,0.0,0,0.0,0.0,0.0
87,xorg-server-1.19.6,0,True,False,True,True,True,498.0,4.0,819.0,4.0,0.0,value,9.0,57.0,7.0
88,gnome-settings-daemon-3.28.1,0,True,False,False,False,False,92.0,0.0,111.0,0.0,0.0,value,0.0,0.0,0.0
89,initramfs-tools-0.130ubuntu3,0,True,False,False,False,False,1.0,0.0,2.0,0.0,0.0,value,0.0,0.0,0.0
90,language-pack-ast-base-18.04+20180423,0,False,False,False,False,False,0.0,0.0,0.0,0.0,0.0,0,0.0,0.0,0.0
91,bolt,0,True,False,False,False,False,23.0,0.0,28.0,0.0,0.0,value,0.0,0.0,0.0
92,language-pack-lt-base-18.04+20180423,0,False,False,False,False,False,0.0,0.0,0.0,0.0,0.0,0,0.0,0.0,0.0
93,language-pack-gnome-he-18.04+20180423,0,False,False,False,False,False,0.0,0.0,0.0,0.0,0.0,0,0.0,0.0,0.0
94,language-pack-gnome-et-18.04+20180423,0,False,False,False,False,False,0.0,0.0,0.0,0.0,0.0,0,0.0,0.0,0.0
95,language-pack-gnome-af-18.04+20180423,0,False,False,False,False,False,0.0,0.0,0.0,0.0,0.0,0,0.0,0.0,0.0
96,gettext-0.19.8.1,0,True,False,False,True,True,767.0,0.0,1028.0,0.0,0.0,value,4.0,29.0,5.0
97,language-pack-as-base-18.04+20180423,0,False,False,False,False,False,0.0,0.0,0.0,0.0,0.0,0,0.0,0.0,0.0
98,language-pack-si-base-18.04+20180423,0,False,False,False,False,False,0.0,0.0,0.0,0.0,0.0,0,0.0,0.0,0.0
99,language-pack-gnome-ga-18.04+20180423,0,False,False,False,False,False,0.0,0.0,0.0,0.0,0.0,0,0.0,0.0,0.0
100,cryptsetup-2.0.2,0,True,False,False,False,False,31.0,0.0,74.0,0.0,0.0,value,0.0,0.0,0.0
101,procps-3.3.12,0,True,False,False,False,True,23.0,0.0,53.0,0.0,0.0,value,5.0,0.0,4.0
102,packagekit-1.1.9,0,True,False,False,False,True,79.0,0.0,98.0,0.0,0.0,value,0.0,0.0,1.0
103,language-pack-ia-18.04+20180423,0,False,False,False,False,False,0.0,0.0,0.0,0.0,0.0,0,0.0,0.0,0.0
104,livecd-rootfs-2.525,0,False,False,False,False,False,0.0,0.0,0.0,0.0,0.0,0,0.0,0.0,0.0
105,linux-meta-gcp-4.15.0.1006.8,0,False,False,False,False,False,0.0,0.0,0.0,0.0,0.0,0,0.0,0.0,0.0
106,open-vm-tools-10.2.0,0,True,False,False,True,True,1281.0,0.0,324.0,0.0,0.0,value,3.0,181.0,6.0
107,language-pack-gnome-fur-base-18.04+20180423,0,False,False,False,False,False,0.0,0.0,0.0,0.0,0.0,0,0.0,0.0,0.0
108,avahi-autoipd,0,True,False,False,False,True,104.0,0.0,147.0,0.0,0.0,value,0.0,0.0,1.0
109,linux-oem-4.15.0,0,True,False,True,True,True,20886.0,1482.0,26393.0,1482.0,0.0,value,28.0,3486.0,9.0
110,postgresql-10-10.3,0,True,False,True,True,True,800.0,4.0,1217.0,4.0,0.0,value,46.0,42.0,49.0
111,squid3-3.5.27,0,True,False,False,False,True,754.0,0.0,67.0,0.0,0.0,value,27.0,0.0,51.0
112,usbmuxd_1.1.0.orig.tar.bz2,0,False,False,False,False,False,0.0,0.0,0.0,0.0,0.0,0,0.0,0.0,0.0
113,language-pack-gnome-ko-base-18.04+20180423,0,False,False,False,False,False,0.0,0.0,0.0,0.0,0.0,0,0.0,0.0,0.0
114,mysql-5.7-5.7.21,0,True,False,False,True,True,1636.0,0.0,517.0,0.0,0.0,value,10.0,43.0,16.0
115,nova-17.0.1,0,False,False,False,False,False,0.0,0.0,0.0,0.0,0.0,0,0.0,0.0,0.0
116,ghostscript-9.22~dfsg+1,0,True,False,False,False,True,697.0,0.0,893.0,0.0,0.0,value,9.0,0.0,8.0
117,language-pack-gnome-zh-hant-base-18.04+20180423,0,False,False,False,False,False,0.0,0.0,0.0,0.0,0.0,0,0.0,0.0,0.0
118,barbican-6.0.0,0,False,False,False,False,False,0.0,0.0,0.0,0.0,0.0,0,0.0,0.0,0.0
119,python-pylxd-2.2.6,0,False,False,False,False,False,0.0,0.0,0.0,0.0,0.0,0,0.0,0.0,0.0
120,bolt-0.2,0,True,False,False,False,False,23.0,0.0,28.0,0.0,0.0,value,0.0,0.0,0.0
121,language-pack-gnome-sq-base-18.04+20180423,0,False,False,False,False,False,0.0,0.0,0.0,0.0,0.0,0,0.0,0.0,0.0
122,cups-pk-helper-0.2.6,0,True,False,False,False,False,3.0,0.0,12.0,0.0,0.0,value,0.0,0.0,0.0
123,mutt_1.9.4.orig.tar.gz.asc,0,False,False,False,False,False,0.0,0.0,0.0,0.0,0.0,0,0.0,0.0,0.0
124,ca-certificates-20180409,0,False,False,False,False,False,1.0,0.0,0.0,0.0,0.0,value,0.0,0.0,0.0
125,quota-4.04,0,True,False,False,False,False,23.0,0.0,38.0,0.0,0.0,value,0.0,0.0,0.0
126,ceph-mgr,0,True,False,True,True,True,2883.0,71.0,1590.0,71.0,1.0,value,23.0,70.0,54.0
127,language-pack-kn-base-18.04+20180423,0,False,False,False,False,False,0.0,0.0,0.0,0.0,0.0,0,0.0,0.0,0.0
128,debian-installer-20101020ubuntu543,0,False,False,False,False,False,0.0,0.0,0.0,0.0,0.0,0,0.0,0.0,0.0
129,language-pack-gnome-gu-base-18.04+20180423,0,False,False,False,False,False,0.0,0.0,0.0,0.0,0.0,0,0.0,0.0,0.0
130,bluez-cups,0,True,False,False,True,True,260.0,0.0,429.0,0.0,0.0,value,8.0,1.0,9.0
131,language-pack-ms-base-18.04+20180423,0,False,False,False,False,False,0.0,0.0,0.0,0.0,0.0,0,0.0,0.0,0.0
132,language-pack-gnome-km-base-18.04+20180423,0,False,False,False,False,False,0.0,0.0,0.0,0.0,0.0,0,0.0,0.0,0.0
133,language-pack-gnome-fi-base-18.04+20180423,0,False,False,False,False,False,0.0,0.0,0.0,0.0,0.0,0,0.0,0.0,0.0
134,mesa-18.0.0~rc5,0,True,False,True,True,True,1782.0,23.0,2127.0,23.0,0.0,value,30.0,78.0,20.0
135,paramiko-2.0.0,0,False,False,False,False,False,0.0,0.0,0.0,0.0,0.0,0,0.0,0.0,0.0
136,postgresql-10_10.3.orig.tar.bz2,0,False,False,False,False,False,0.0,0.0,0.0,0.0,0.0,0,0.0,0.0,0.0
137,linux-meta-4.15.0.20.23,0,False,False,False,False,False,0.0,0.0,0.0,0.0,0.0,0,0.0,0.0,0.0
138,alsa-lib-1.1.3,0,True,False,False,True,True,77.0,0.0,144.0,0.0,0.0,value,67.0,26.0,29.0
139,bluez-5.48,0,True,False,False,True,True,260.0,0.0,429.0,0.0,0.0,value,8.0,1.0,9.0
140,language-pack-gnome-mk-base-18.04+20180423,0,False,False,False,False,False,0.0,0.0,0.0,0.0,0.0,0,0.0,0.0,0.0
141,language-pack-ko-base-18.04+20180423,0,False,False,False,False,False,0.0,0.0,0.0,0.0,0.0,0,0.0,0.0,0.0
142,avahi-0.7,0,True,False,False,False,True,104.0,0.0,147.0,0.0,0.0,value,0.0,0.0,1.0
143,language-pack-mai-18.04+20180423,0,False,False,False,False,False,0.0,0.0,0.0,0.0,0.0,0,0.0,0.0,0.0
144,ceph-osd,0,True,False,True,True,True,2883.0,71.0,1590.0,71.0,1.0,value,23.0,70.0,54.0
145,language-pack-gnome-ku-18.04+20180423,0,False,False,False,False,False,0.0,0.0,0.0,0.0,0.0,0,0.0,0.0,0.0
146,language-pack-gnome-it-18.04+20180423,0,False,False,False,False,False,0.0,0.0,0.0,0.0,0.0,0,0.0,0.0,0.0
147,language-pack-ia-base-18.04+20180423,0,False,False,False,False,False,0.0,0.0,0.0,0.0,0.0,0,0.0,0.0,0.0
148,binutils-dev,0,True,False,True,True,True,864.0,6167.0,1584.0,6167.0,0.0,value,25.0,166.0,42.0
149,language-pack-gnome-sv-18.04+20180423,0,False,False,False,False,False,0.0,0.0,0.0,0.0,0.0,0,0.0,0.0,0.0
150,binutils-x86-64-linux-gnu-dbg,0,True,False,True,True,True,864.0,6167.0,1584.0,6167.0,0.0,value,25.0,166.0,42.0
151,gnome-online-accounts-3.28.0,0,True,False,False,False,False,98.0,0.0,94.0,0.0,0.0,value,0.0,0.0,0.0
152,webkit2gtk-2.20.1,0,True,False,False,True,True,7226.0,0.0,33.0,0.0,0.0,value,3.0,6.0,2.0
153,ceph,0,True,False,True,True,True,2883.0,71.0,1590.0,71.0,1.0,value,23.0,70.0,54.0
154,language-pack-gnome-sk-base-18.04+20180423,0,False,False,False,False,False,0.0,0.0,0.0,0.0,0.0,0,0.0,0.0,0.0
155,language-pack-fa-base-18.04+20180423,0,False,False,False,False,False,0.0,0.0,0.0,0.0,0.0,0,0.0,0.0,0.0
156,gst-plugins-base1.0-1.14.0,0,True,False,False,False,False,369.0,0.0,487.0,0.0,0.0,value,0.0,0.0,0.0
157,language-pack-da-18.04+20180423,0,False,False,False,False,False,0.0,0.0,0.0,0.0,0.0,0,0.0,0.0,0.0
158,openssl1.0-1.0.2n,0,True,False,True,False,True,196.0,16.0,922.0,16.0,0.0,value,6.0,0.0,8.0
159,aodh-listener,0,False,False,False,False,False,0.0,0.0,0.0,0.0,0.0,0,0.0,0.0,0.0
160,binutils-i686-kfreebsd-gnu-dbg,0,True,False,True,True,True,864.0,6167.0,1584.0,6167.0,0.0,value,25.0,166.0,42.0
161,language-pack-gnome-my-18.04+20180423,0,False,False,False,False,False,0.0,0.0,0.0,0.0,0.0,0,0.0,0.0,0.0
162,binutils-common,0,True,False,True,True,True,864.0,6167.0,1584.0,6167.0,0.0,value,25.0,166.0,42.0
163,localechooser-2.71ubuntu2,0,False,False,False,False,False,0.0,0.0,0.0,0.0,0.0,0,0.0,0.0,0.0
164,gnome-mines-3.28.0,0,False,False,False,False,False,0.0,0.0,0.0,0.0,0.0,0,0.0,0.0,0.0
165,language-selector-0.188,0,False,False,False,False,False,0.0,0.0,0.0,0.0,0.0,0,0.0,0.0,0.0
166,language-pack-gnome-oc-base-18.04+20180423,0,False,False,False,False,False,0.0,0.0,0.0,0.0,0.0,0,0.0,0.0,0.0
167,language-pack-crh-18.04+20180423,0,False,False,False,False,False,0.0,0.0,0.0,0.0,0.0,0,0.0,0.0,0.0
168,language-pack-gnome-si-base-18.04+20180423,0,False,False,False,False,False,0.0,0.0,0.0,0.0,0.0,0,0.0,0.0,0.0
169,language-pack-si-18.04+20180423,0,False,False,False,False,False,0.0,0.0,0.0,0.0,0.0,0,0.0,0.0,0.0
170,tzdata_2018d.orig.tar.gz.asc,0,False,False,False,False,False,0.0,0.0,0.0,0.0,0.0,0,0.0,0.0,0.0
171,language-pack-pl-18.04+20180423,0,False,False,False,False,False,0.0,0.0,0.0,0.0,0.0,0,0.0,0.0,0.0
172,language-pack-crh-base-18.04+20180423,0,False,False,False,False,False,0.0,0.0,0.0,0.0,0.0,0,0.0,0.0,0.0
173,language-pack-zh-hant-base-18.04+20180423,0,False,False,False,False,False,0.0,0.0,0.0,0.0,0.0,0,0.0,0.0,0.0
174,apparmor,0,True,False,False,True,False,33.0,0.0,126.0,0.0,0.0,value,0.0,2.0,0.0
175,apparmor-utils,0,True,False,False,True,False,33.0,0.0,126.0,0.0,0.0,value,0.0,2.0,0.0
176,language-pack-gnome-da-18.04+20180423,0,False,False,False,False,False,0.0,0.0,0.0,0.0,0.0,0,0.0,0.0,0.0
177,mutt-1.9.4,0,True,False,False,False,False,75.0,0.0,159.0,0.0,0.0,value,0.0,0.0,0.0
178,binutils-s390x-linux-gnu-dbg,0,True,False,True,True,True,864.0,6167.0,1584.0,6167.0,0.0,value,25.0,166.0,42.0
179,plymouth-0.9.3,0,True,False,False,False,True,54.0,0.0,83.0,0.0,0.0,value,2.0,0.0,4.0
180,gnome-session-3.28.1,0,True,False,False,False,False,40.0,0.0,51.0,0.0,0.0,value,0.0,0.0,0.0
181,language-pack-eo-base-18.04+20180423,0,False,False,False,False,False,0.0,0.0,0.0,0.0,0.0,0,0.0,0.0,0.0
182,language-pack-gnome-tr-base-18.04+20180423,0,False,False,False,False,False,0.0,0.0,0.0,0.0,0.0,0,0.0,0.0,0.0
183,brltty,0,True,False,False,True,True,268.0,0.0,335.0,0.0,0.0,value,2.0,2.0,2.0
184,bind9utils,0,True,False,False,True,True,505.0,0.0,688.0,0.0,0.0,value,36.0,19.0,290.0
185,ruby2.5-2.5.1,0,True,False,True,True,True,154.0,2.0,457.0,2.0,0.0,value,22.0,12.0,14.0
186,libglvnd-1.0.0,0,True,False,False,True,True,61.0,0.0,147.0,0.0,0.0,value,6.0,43.0,6.0
187,gnome-calendar-3.28.1,0,True,False,False,False,False,37.0,0.0,40.0,0.0,0.0,value,0.0,0.0,0.0
188,lftp_4.8.1.orig.tar.xz.asc,0,False,False,False,False,False,0.0,0.0,0.0,0.0,0.0,0,0.0,0.0,0.0
189,linux-gcp-4.15.0,0,True,False,True,True,True,20885.0,1482.0,26392.0,1482.0,0.0,value,28.0,3486.0,9.0
190,avahi-utils,0,True,False,False,False,True,104.0,0.0,147.0,0.0,0.0,value,0.0,0.0,1.0
191,python-wadllib-1.3.2,0,False,False,False,False,False,0.0,0.0,0.0,0.0,0.0,0,0.0,0.0,0.0
192,nss-3.35,0,True,False,True,True,True,444.0,23.0,673.0,23.0,0.0,value,11.0,40.0,4.0
193,language-pack-nb-base-18.04+20180423,0,False,False,False,False,False,0.0,0.0,0.0,0.0,0.0,0,0.0,0.0,0.0
194,php7.2-7.2.3,0,True,False,False,True,True,794.0,0.0,1061.0,0.0,0.0,value,20.0,62.0,9.0
195,vte2.91-0.52.1,0,True,False,False,False,False,23.0,0.0,6.0,0.0,0.0,value,0.0,0.0,0.0
196,systemd-237,0,True,False,False,True,True,476.0,0.0,809.0,0.0,0.0,value,12.0,2.0,4.0
197,rax-nova-agent-2.1.13,0,False,False,False,False,False,0.0,0.0,0.0,0.0,0.0,0,0.0,0.0,0.0
198,language-pack-nn-base-18.04+20180423,0,False,False,False,False,False,0.0,0.0,0.0,0.0,0.0,0,0.0,0.0,0.0
199,language-pack-gnome-ro-18.04+20180423,0,False,False,False,False,False,0.0,0.0,0.0,0.0,0.0,0,0.0,0.0,0.0
200,screen_4.6.2.orig.tar.gz.asc,0,False,False,False,False,False,0.0,0.0,0.0,0.0,0.0,0,0.0,0.0,0.0
201,samba-4.7.6+dfsg~ubuntu,0,True,False,True,True,True,941.0,3.0,3032.0,3.0,0.0,value,55.0,6.0,61.0
202,xapian-core-1.4.5,0,True,False,False,False,False,330.0,0.0,7.0,0.0,0.0,value,1.0,0.0,0.0
203,liblouis-3.5.0,0,True,False,False,True,False,57.0,0.0,82.0,0.0,0.0,value,0.0,3.0,0.0
204,language-pack-da-base-18.04+20180423,0,False,False,False,False,False,0.0,0.0,0.0,0.0,0.0,0,0.0,0.0,0.0
205,linux-meta-oem-4.15.0.1004.2,0,False,False,False,False,False,0.0,0.0,0.0,0.0,0.0,0,0.0,0.0,0.0
206,language-pack-gnome-hi-base-18.04+20180423,0,False,False,False,False,False,0.0,0.0,0.0,0.0,0.0,0,0.0,0.0,0.0
207,xorg-7.7+19ubuntu7,0,False,False,False,False,False,0.0,0.0,0.0,0.0,0.0,0,0.0,0.0,0.0
208,apache2-doc,0,True,False,False,False,True,146.0,0.0,313.0,0.0,0.0,value,1.0,0.0,2.0
209,language-pack-gu-base-18.04+20180423,0,False,False,False,False,False,0.0,0.0,0.0,0.0,0.0,0,0.0,0.0,0.0
210,language-pack-gnome-zh-hant-18.04+20180423,0,False,False,False,False,False,0.0,0.0,0.0,0.0,0.0,0,0.0,0.0,0.0
211,language-pack-gnome-hi-18.04+20180423,0,False,False,False,False,False,0.0,0.0,0.0,0.0,0.0,0,0.0,0.0,0.0
212,language-pack-gnome-fa-base-18.04+20180423,0,False,False,False,False,False,0.0,0.0,0.0,0.0,0.0,0,0.0,0.0,0.0
213,language-pack-pa-base-18.04+20180423,0,False,False,False,False,False,0.0,0.0,0.0,0.0,0.0,0,0.0,0.0,0.0
214,fonts-liberation2-2.00.1,0,False,False,False,False,False,0.0,0.0,0.0,0.0,0.0,0,0.0,0.0,0.0
215,language-pack-mk-base-18.04+20180423,0,False,False,False,False,False,0.0,0.0,0.0,0.0,0.0,0,0.0,0.0,0.0
216,ssh-import-id-5.7,0,False,False,False,False,False,0.0,0.0,0.0,0.0,0.0,0,0.0,0.0,0.0
217,python2.7-2.7.15~rc1,0,True,False,True,True,True,259.0,49.0,553.0,49.0,0.0,value,26.0,25.0,53.0
218,language-pack-uk-18.04+20180423,0,False,False,False,False,False,0.0,0.0,0.0,0.0,0.0,0,0.0,0.0,0.0
219,binutils-x86-64-linux-gnu,0,True,False,True,True,True,864.0,6167.0,1584.0,6167.0,0.0,value,25.0,166.0,42.0
220,sosreport-3.5,0,False,False,False,False,False,0.0,0.0,0.0,0.0,0.0,0,0.0,0.0,0.0
221,lxd-3.0.0,0,True,False,True,True,True,62.0,52.0,313.0,52.0,0.0,value,14.0,16.0,2.0
222,language-pack-gnome-is-base-18.04+20180423,0,False,False,False,False,False,0.0,0.0,0.0,0.0,0.0,0,0.0,0.0,0.0
223,language-pack-fi-base-18.04+20180423,0,False,False,False,False,False,0.0,0.0,0.0,0.0,0.0,0,0.0,0.0,0.0
224,util-linux-2.31.1,0,True,False,False,True,False,97.0,0.0,354.0,0.0,0.0,value,0.0,4.0,0.0
225,glance-16.0.0,0,False,False,False,False,False,0.0,0.0,0.0,0.0,0.0,0,0.0,0.0,0.0
226,language-pack-de-base-18.04+20180423,0,False,False,False,False,False,0.0,0.0,0.0,0.0,0.0,0,0.0,0.0,0.0
227,ceilometer-10.0.0,0,False,False,False,False,False,0.0,0.0,0.0,0.0,0.0,0,0.0,0.0,0.0
228,apturl-common,0,False,False,False,False,False,0.0,0.0,0.0,0.0,0.0,0,0.0,0.0,0.0
229,binutils-i686-linux-gnu,0,True,False,True,True,True,864.0,6167.0,1584.0,6167.0,0.0,value,25.0,166.0,42.0
230,live-build-3.0~a57,0,False,False,False,False,False,0.0,0.0,0.0,0.0,0.0,0,0.0,0.0,0.0
231,valgrind_3.13.0.orig.tar.bz2,0,False,False,False,False,False,0.0,0.0,0.0,0.0,0.0,0,0.0,0.0,0.0
232,language-pack-hi-base-18.04+20180423,0,False,False,False,False,False,0.0,0.0,0.0,0.0,0.0,0,0.0,0.0,0.0
233,apache2-2.4.29,0,True,False,False,False,True,146.0,0.0,313.0,0.0,0.0,value,1.0,0.0,2.0
234,libarchive-3.2.2,0,True,False,False,False,False,62.0,0.0,525.0,0.0,0.0,value,0.0,0.0,0.0
235,language-pack-gnome-cs-base-18.04+20180423,0,False,False,False,False,False,0.0,0.0,0.0,0.0,0.0,0,0.0,0.0,0.0
236,language-pack-gnome-et-base-18.04+20180423,0,False,False,False,False,False,0.0,0.0,0.0,0.0,0.0,0,0.0,0.0,0.0
237,apparmor-profiles,0,True,False,False,True,False,33.0,0.0,126.0,0.0,0.0,value,0.0,2.0,0.0
238,mutter-3.28.1,0,True,False,False,False,False,641.0,0.0,670.0,0.0,0.0,value,0.0,0.0,0.0
239,language-pack-sv-base-18.04+20180423,0,False,False,False,False,False,0.0,0.0,0.0,0.0,0.0,0,0.0,0.0,0.0
240,language-pack-gnome-gl-base-18.04+20180423,0,False,False,False,False,False,0.0,0.0,0.0,0.0,0.0,0,0.0,0.0,0.0
241,language-pack-gnome-kn-18.04+20180423,0,False,False,False,False,False,0.0,0.0,0.0,0.0,0.0,0,0.0,0.0,0.0
242,linux-meta-azure-4.15.0.1009.9,0,False,False,False,False,False,0.0,0.0,0.0,0.0,0.0,0,0.0,0.0,0.0
243,ceph-mon,0,True,False,True,True,True,2883.0,71.0,1590.0,71.0,1.0,value,23.0,70.0,54.0
244,language-pack-vi-base-18.04+20180423,0,False,False,False,False,False,0.0,0.0,0.0,0.0,0.0,0,0.0,0.0,0.0
245,language-pack-gnome-pt-18.04+20180423,0,False,False,False,False,False,0.0,0.0,0.0,0.0,0.0,0,0.0,0.0,0.0
246,appstream-doc,0,True,False,False,False,False,68.0,0.0,42.0,0.0,0.0,value,0.0,0.0,0.0
247,language-pack-fr-18.04+20180423,0,False,False,False,False,False,0.0,0.0,0.0,0.0,0.0,0,0.0,0.0,0.0
248,strongswan-5.6.2,0,True,False,False,False,True,1104.0,0.0,1267.0,0.0,0.0,value,37.0,0.0,20.0
249,debootstrap-1.0.95,0,False,False,False,False,False,0.0,0.0,0.0,0.0,0.0,0,0.0,0.0,0.0
250,language-pack-gnome-ia-18.04+20180423,0,False,False,False,False,False,0.0,0.0,0.0,0.0,0.0,0,0.0,0.0,0.0
251,language-pack-gnome-sk-18.04+20180423,0,False,False,False,False,False,0.0,0.0,0.0,0.0,0.0,0,0.0,0.0,0.0
252,aodh-evaluator,0,False,False,False,False,False,0.0,0.0,0.0,0.0,0.0,0,0.0,0.0,0.0
253,language-pack-gnome-el-base-18.04+20180423,0,False,False,False,False,False,0.0,0.0,0.0,0.0,0.0,0,0.0,0.0,0.0
254,chrony,0,True,False,False,False,False,53.0,0.0,67.0,0.0,0.0,value,1.0,0.0,0.0
255,xdg-utils-1.1.2,0,False,False,False,False,False,0.0,0.0,0.0,0.0,0.0,0,0.0,0.0,0.0
256,libraw-0.18.8,0,True,False,False,False,False,11.0,0.0,5.0,0.0,0.0,value,0.0,0.0,0.0
257,vlan-1.9,0,True,False,False,False,False,1.0,0.0,2.0,0.0,1.0,value,0.0,0.0,0.0
258,language-pack-pl-base-18.04+20180423,0,False,False,False,False,False,0.0,0.0,0.0,0.0,0.0,0,0.0,0.0,0.0
259,apt-config-icons-hidpi,0,True,False,False,False,False,68.0,0.0,42.0,0.0,0.0,value,0.0,0.0,0.0
260,python-apt-1.6.0,0,False,False,False,False,False,6.0,0.0,0.0,0.0,0.0,value,0.0,0.0,0.0
261,language-pack-ca-base-18.04+20180423,0,False,False,False,False,False,0.0,0.0,0.0,0.0,0.0,0,0.0,0.0,0.0
262,webkit2gtk_2.20.1.orig.tar.xz.asc,0,False,False,False,False,False,0.0,0.0,0.0,0.0,0.0,0,0.0,0.0,0.0
263,language-pack-gnome-bg-base-18.04+20180423,0,False,False,False,False,False,0.0,0.0,0.0,0.0,0.0,0,0.0,0.0,0.0
264,screen-4.6.2,0,True,False,False,False,False,23.0,0.0,45.0,0.0,0.0,value,0.0,0.0,0.0
265,intel-microcode-3.20180312.0~ubuntu18.04.1,0,False,False,False,False,False,0.0,0.0,0.0,0.0,0.0,0,0.0,0.0,0.0
266,ubiquity-18.04.14,0,True,False,False,False,False,10.0,0.0,44.0,0.0,0.0,value,0.0,0.0,0.0
267,bind9,0,True,False,False,True,True,505.0,0.0,688.0,0.0,0.0,value,36.0,19.0,290.0
268,gpgme1.0_1.10.0.orig.tar.bz2.asc,0,False,False,False,False,False,0.0,0.0,0.0,0.0,0.0,0,0.0,0.0,0.0
269,language-pack-gnome-is-18.04+20180423,0,False,False,False,False,False,0.0,0.0,0.0,0.0,0.0,0,0.0,0.0,0.0
270,python-openstackclient-3.14.0,0,False,False,False,False,False,0.0,0.0,0.0,0.0,0.0,0,0.0,0.0,0.0
271,language-pack-th-base-18.04+20180423,0,False,False,False,False,False,0.0,0.0,0.0,0.0,0.0,0,0.0,0.0,0.0
272,language-pack-gnome-th-18.04+20180423,0,False,False,False,False,False,0.0,0.0,0.0,0.0,0.0,0,0.0,0.0,0.0
273,language-pack-gnome-lt-base-18.04+20180423,0,False,False,False,False,False,0.0,0.0,0.0,0.0,0.0,0,0.0,0.0,0.0
274,ubuntu-docs-18.04.3,0,False,False,False,False,False,0.0,0.0,0.0,0.0,0.0,0,0.0,0.0,0.0
275,binutils-i686-gnu,0,True,False,True,True,True,864.0,6167.0,1584.0,6167.0,0.0,value,25.0,166.0,42.0
276,language-pack-kk-base-18.04+20180423,0,False,False,False,False,False,0.0,0.0,0.0,0.0,0.0,0,0.0,0.0,0.0
277,language-pack-af-18.04+20180423,0,False,False,False,False,False,0.0,0.0,0.0,0.0,0.0,0,0.0,0.0,0.0
278,language-pack-gnome-de-base-18.04+20180423,0,False,False,False,False,False,0.0,0.0,0.0,0.0,0.0,0,0.0,0.0,0.0
279,language-pack-lv-base-18.04+20180423,0,False,False,False,False,False,0.0,0.0,0.0,0.0,0.0,0,0.0,0.0,0.0
280,gnu-efi_3.0.4.orig.tar.bz2,0,False,False,False,False,False,0.0,0.0,0.0,0.0,0.0,0,0.0,0.0,0.0
281,language-pack-gnome-hr-base-18.04+20180423,0,False,False,False,False,False,0.0,0.0,0.0,0.0,0.0,0,0.0,0.0,0.0
282,designate-6.0.0,0,False,False,False,False,False,0.0,0.0,0.0,0.0,0.0,0,0.0,0.0,0.0
283,spice-0.14.0,0,True,False,False,False,False,103.0,0.0,112.0,0.0,0.0,value,0.0,0.0,0.0
284,gnome-disk-utility-3.28.1,0,True,False,False,False,True,37.0,0.0,37.0,0.0,0.0,value,0.0,0.0,1.0
285,rdma-core-17.1,0,True,False,False,True,True,147.0,0.0,122.0,0.0,0.0,value,50.0,2.0,11.0
286,language-pack-gnome-ku-base-18.04+20180423,0,False,False,False,False,False,0.0,0.0,0.0,0.0,0.0,0,0.0,0.0,0.0
287,language-pack-gnome-eo-18.04+20180423,0,False,False,False,False,False,0.0,0.0,0.0,0.0,0.0,0,0.0,0.0,0.0
288,language-pack-zh-hant-18.04+20180423,0,False,False,False,False,False,0.0,0.0,0.0,0.0,0.0,0,0.0,0.0,0.0
289,libgweather-3.28.1,0,True,False,False,False,False,9.0,0.0,20.0,0.0,0.0,value,0.0,0.0,0.0
290,language-pack-gnome-pt-base-18.04+20180423,0,False,False,False,False,False,0.0,0.0,0.0,0.0,0.0,0,0.0,0.0,0.0
291,hwdata-0.290,0,False,False,False,False,False,0.0,0.0,0.0,0.0,0.0,0,0.0,0.0,0.0
292,language-pack-gnome-ta-base-18.04+20180423,0,False,False,False,False,False,0.0,0.0,0.0,0.0,0.0,0,0.0,0.0,0.0
293,language-pack-fa-18.04+20180423,0,False,False,False,False,False,0.0,0.0,0.0,0.0,0.0,0,0.0,0.0,0.0
294,horizon-13.0.0,0,False,False,False,False,False,0.0,0.0,0.0,0.0,0.0,0,0.0,0.0,0.0
295,ebtables-2.0.10.4,0,True,False,False,False,False,24.0,0.0,34.0,0.0,0.0,value,0.0,0.0,0.0
296,language-pack-gnome-vi-base-18.04+20180423,0,False,False,False,False,False,0.0,0.0,0.0,0.0,0.0,0,0.0,0.0,0.0
297,language-pack-ug-18.04+20180423,0,False,False,False,False,False,0.0,0.0,0.0,0.0,0.0,0,0.0,0.0,0.0
298,language-pack-or-base-18.04+20180423,0,False,False,False,False,False,0.0,0.0,0.0,0.0,0.0,0,0.0,0.0,0.0
299,language-pack-cs-base-18.04+20180423,0,False,False,False,False,False,0.0,0.0,0.0,0.0,0.0,0,0.0,0.0,0.0
300,language-pack-th-18.04+20180423,0,False,False,False,False,False,0.0,0.0,0.0,0.0,0.0,0,0.0,0.0,0.0
301,linux-firmware-1.173,0,True,False,True,False,False,42.0,9.0,66.0,9.0,0.0,value,0.0,0.0,0.0
302,nvidia-settings_390.42.orig.tar.bz2,0,False,False,False,False,False,0.0,0.0,0.0,0.0,0.0,0,0.0,0.0,0.0
303,language-pack-gnome-ta-18.04+20180423,0,False,False,False,False,False,0.0,0.0,0.0,0.0,0.0,0,0.0,0.0,0.0
304,language-pack-gnome-en-18.04+20180423,0,False,False,False,False,False,0.0,0.0,0.0,0.0,0.0,0,0.0,0.0,0.0
305,neutron-fwaas-12.0.0,0,False,False,False,False,False,0.0,0.0,0.0,0.0,0.0,0,0.0,0.0,0.0
306,language-pack-an-base-18.04+20180423,0,False,False,False,False,False,0.0,0.0,0.0,0.0,0.0,0,0.0,0.0,0.0
307,binutils-arm-linux-gnueabihf-dbg,0,True,False,True,True,True,864.0,6167.0,1584.0,6167.0,0.0,value,25.0,166.0,42.0
308,language-pack-gnome-sr-base-18.04+20180423,0,False,False,False,False,False,0.0,0.0,0.0,0.0,0.0,0,0.0,0.0,0.0
309,language-pack-el-base-18.04+20180423,0,False,False,False,False,False,0.0,0.0,0.0,0.0,0.0,0,0.0,0.0,0.0
310,language-pack-my-base-18.04+20180423,0,False,False,False,False,False,0.0,0.0,0.0,0.0,0.0,0,0.0,0.0,0.0
311,libtirpc-0.2.5,0,True,False,False,False,False,37.0,0.0,82.0,0.0,0.0,value,0.0,0.0,0.0
312,apparmor-2.12,0,True,False,False,True,False,33.0,0.0,126.0,0.0,0.0,value,0.0,2.0,0.0
313,language-pack-is-18.04+20180423,0,False,False,False,False,False,0.0,0.0,0.0,0.0,0.0,0,0.0,0.0,0.0
314,nautilus-3.26.3,0,True,False,False,False,False,192.0,0.0,223.0,0.0,0.0,value,0.0,0.0,0.0
315,apache2,0,True,False,False,False,True,146.0,0.0,313.0,0.0,0.0,value,1.0,0.0,2.0
316,binutils-doc,0,True,False,True,True,True,864.0,6167.0,1584.0,6167.0,0.0,value,25.0,166.0,42.0
317,barbican-common,0,False,False,False,False,False,0.0,0.0,0.0,0.0,0.0,0,0.0,0.0,0.0
318,devscripts-2.17.12ubuntu1,0,True,False,False,False,False,0.0,0.0,1.0,0.0,0.0,value,0.0,0.0,0.0
319,language-pack-gnome-ne-18.04+20180423,0,False,False,False,False,False,0.0,0.0,0.0,0.0,0.0,0,0.0,0.0,0.0
320,language-pack-fi-18.04+20180423,0,False,False,False,False,False,0.0,0.0,0.0,0.0,0.0,0,0.0,0.0,0.0
321,language-pack-gnome-sv-base-18.04+20180423,0,False,False,False,False,False,0.0,0.0,0.0,0.0,0.0,0,0.0,0.0,0.0
322,language-pack-gnome-or-18.04+20180423,0,False,False,False,False,False,0.0,0.0,0.0,0.0,0.0,0,0.0,0.0,0.0
323,update-manager-18.04.11,0,False,False,False,False,False,0.0,0.0,0.0,0.0,0.0,0,0.0,0.0,0.0
324,appstream,0,True,False,False,False,False,68.0,0.0,42.0,0.0,0.0,value,0.0,0.0,0.0
325,chrony-3.2,0,True,False,False,False,False,53.0,0.0,67.0,0.0,0.0,value,1.0,0.0,0.0
326,binutils-i686-gnu-dbg,0,True,False,True,True,True,864.0,6167.0,1584.0,6167.0,0.0,value,25.0,166.0,42.0
327,ceilometer-common,0,False,False,False,False,False,0.0,0.0,0.0,0.0,0.0,0,0.0,0.0,0.0
328,language-pack-gnome-ca-base-18.04+20180423,0,False,False,False,False,False,0.0,0.0,0.0,0.0,0.0,0,0.0,0.0,0.0
329,qemu-2.11+dfsg,0,True,False,True,True,False,1337.0,183.0,2576.0,183.0,0.0,value,0.0,26.0,0.0
330,language-pack-gnome-ru-18.04+20180423,0,False,False,False,False,False,0.0,0.0,0.0,0.0,0.0,0,0.0,0.0,0.0
331,openvpn-2.4.4,0,True,False,False,True,True,100.0,0.0,112.0,0.0,0.0,value,2.0,1.0,9.0
332,language-pack-gnome-hu-18.04+20180423,0,False,False,False,False,False,0.0,0.0,0.0,0.0,0.0,0,0.0,0.0,0.0
333,curtin-18.1-5-g572ae5d6,0,False,False,False,False,False,0.0,0.0,0.0,0.0,0.0,0,0.0,0.0,0.0
334,language-pack-gnome-si-18.04+20180423,0,False,False,False,False,False,0.0,0.0,0.0,0.0,0.0,0,0.0,0.0,0.0
335,apport-retrace,0,False,False,False,False,False,0.0,0.0,0.0,0.0,0.0,0,0.0,0.0,0.0
336,openjdk-lts-10.0.1+10,0,True,False,True,True,True,633.0,13.0,828.0,13.0,0.0,value,244.0,14.0,86.0
337,gnome-getting-started-docs-3.28.1,0,False,False,False,False,False,0.0,0.0,0.0,0.0,0.0,0,0.0,0.0,0.0
338,language-pack-gnome-en-base-18.04+20180423,0,False,False,False,False,False,0.0,0.0,0.0,0.0,0.0,0,0.0,0.0,0.0
339,dpdk-17.11.1,0,True,False,False,True,True,880.0,0.0,841.0,0.0,0.0,value,18.0,18.0,3.0
340,libpng1.6-1.6.34,0,True,False,True,False,False,17.0,1.0,70.0,1.0,0.0,value,0.0,0.0,0.0
341,unattended-upgrades-1.1ubuntu1,0,False,False,False,False,False,0.0,0.0,0.0,0.0,0.0,0,0.0,0.0,0.0
342,language-pack-ar-base-18.04+20180423,0,False,False,False,False,False,0.0,0.0,0.0,0.0,0.0,0,0.0,0.0,0.0
343,language-pack-dz-18.04+20180423,0,False,False,False,False,False,0.0,0.0,0.0,0.0,0.0,0,0.0,0.0,0.0
344,language-pack-cs-18.04+20180423,0,False,False,False,False,False,0.0,0.0,0.0,0.0,0.0,0,0.0,0.0,0.0
345,avahi-daemon,0,True,False,False,False,True,104.0,0.0,147.0,0.0,0.0,value,0.0,0.0,1.0
346,bsdutils,0,False,False,False,False,False,0.0,0.0,0.0,0.0,0.0,0,0.0,0.0,0.0
347,moin-1.9.9,0,False,False,False,False,False,0.0,0.0,0.0,0.0,0.0,0,0.0,0.0,0.0
348,shim-13,0,True,False,True,True,True,170.0,1.0,453.0,1.0,0.0,value,4.0,2.0,6.0
349,apt-config-icons,0,True,False,False,False,False,68.0,0.0,42.0,0.0,0.0,value,0.0,0.0,0.0
350,language-pack-ta-base-18.04+20180423,0,False,False,False,False,False,0.0,0.0,0.0,0.0,0.0,0,0.0,0.0,0.0
351,x11-xkb-utils-7.7+3,0,True,False,False,False,False,22.0,0.0,34.0,0.0,0.0,value,0.0,0.0,0.0
352,libx11-1.6.4,0,True,False,False,False,True,85.0,0.0,416.0,0.0,0.0,value,8.0,0.0,5.0
353,language-pack-ca-18.04+20180423,0,False,False,False,False,False,0.0,0.0,0.0,0.0,0.0,0,0.0,0.0,0.0
354,distro-info-data-0.37,0,False,False,False,False,False,0.0,0.0,0.0,0.0,0.0,0,0.0,0.0,0.0
355,libgcrypt20-1.8.1,0,True,False,True,True,False,61.0,145.0,169.0,145.0,0.0,value,0.0,121.0,0.0
356,gnupg2_2.2.4.orig.tar.bz2.asc,0,False,False,False,False,False,0.0,0.0,0.0,0.0,0.0,0,0.0,0.0,0.0
357,binutils-powerpc64le-linux-gnu,0,True,False,True,True,True,864.0,6167.0,1584.0,6167.0,0.0,value,25.0,166.0,42.0
358,libgd2-2.2.5,0,True,False,False,False,False,25.0,0.0,254.0,0.0,0.0,value,0.0,0.0,0.0
359,language-pack-gnome-my-base-18.04+20180423,0,False,False,False,False,False,0.0,0.0,0.0,0.0,0.0,0,0.0,0.0,0.0
360,aodh-expirer,0,False,False,False,False,False,0.0,0.0,0.0,0.0,0.0,0,0.0,0.0,0.0
361,language-pack-ne-18.04+20180423,0,False,False,False,False,False,0.0,0.0,0.0,0.0,0.0,0,0.0,0.0,0.0
362,language-pack-gd-base-18.04+20180423,0,False,False,False,False,False,0.0,0.0,0.0,0.0,0.0,0,0.0,0.0,0.0
363,python-cryptography-2.1.4,0,True,False,False,False,False,3.0,0.0,3.0,0.0,0.0,value,0.0,0.0,0.0
364,openssl-1.1.0g,0,True,False,True,False,True,195.0,12.0,854.0,12.0,0.0,value,3.0,0.0,6.0
365,language-pack-gnome-oc-18.04+20180423,0,False,False,False,False,False,0.0,0.0,0.0,0.0,0.0,0,0.0,0.0,0.0
366,ipxe-1.0.0+git-20180124.fbe8c52d,0,True,False,True,True,False,826.0,46.0,765.0,46.0,0.0,value,0.0,382.0,0.0
367,language-pack-sl-base-18.04+20180423,0,False,False,False,False,False,0.0,0.0,0.0,0.0,0.0,0,0.0,0.0,0.0
368,fonts-guru-extra-2.0,0,False,False,False,False,False,0.0,0.0,0.0,0.0,0.0,0,0.0,0.0,0.0
369,open-iscsi-2.0.874,0,True,False,False,True,False,94.0,0.0,94.0,0.0,0.0,value,0.0,1.0,0.0
370,libarchive-zip-perl-1.60,0,False,False,False,False,False,0.0,0.0,0.0,0.0,0.0,0,0.0,0.0,0.0
371,fonts-noto-color-emoji-0~20180424,0,True,False,False,False,False,0.0,0.0,1.0,0.0,0.0,value,0.0,0.0,0.0
372,ubuntu-image-1.3+18.04ubuntu2,0,False,False,False,False,False,0.0,0.0,0.0,0.0,0.0,0,0.0,0.0,0.0
373,language-pack-et-base-18.04+20180423,0,False,False,False,False,False,0.0,0.0,0.0,0.0,0.0,0,0.0,0.0,0.0
374,base-files,0,False,False,False,False,False,0.0,0.0,0.0,0.0,0.0,0,0.0,0.0,0.0
375,language-pack-gnome-ast-base-18.04+20180423,0,False,False,False,False,False,0.0,0.0,0.0,0.0,0.0,0,0.0,0.0,0.0
376,linux-signed-azure-4.15.0,0,False,False,False,False,False,0.0,0.0,0.0,0.0,0.0,0,0.0,0.0,0.0
377,libgnomekbd-3.26.0,0,True,False,False,False,False,9.0,0.0,15.0,0.0,0.0,value,0.0,0.0,0.0
378,language-pack-gnome-cs-18.04+20180423,0,False,False,False,False,False,0.0,0.0,0.0,0.0,0.0,0,0.0,0.0,0.0
379,language-pack-gnome-ga-base-18.04+20180423,0,False,False,False,False,False,0.0,0.0,0.0,0.0,0.0,0,0.0,0.0,0.0
380,evince-3.28.2,0,True,False,False,True,False,150.0,0.0,155.0,0.0,0.0,value,0.0,4.0,0.0
381,language-pack-br-18.04+20180423,0,False,False,False,False,False,0.0,0.0,0.0,0.0,0.0,0,0.0,0.0,0.0
382,dpkg-1.19.0.5ubuntu2,0,True,False,False,False,False,64.0,0.0,144.0,0.0,0.0,value,0.0,0.0,0.0
383,apturl-0.5.2ubuntu14,0,False,False,False,False,False,0.0,0.0,0.0,0.0,0.0,0,0.0,0.0,0.0
384,lxd_3.0.0.orig.tar.gz.asc,0,False,False,False,False,False,0.0,0.0,0.0,0.0,0.0,0,0.0,0.0,0.0
385,language-pack-gnome-ug-18.04+20180423,0,False,False,False,False,False,0.0,0.0,0.0,0.0,0.0,0,0.0,0.0,0.0
386,wavpack-5.1.0,0,True,False,True,False,False,8.0,5.0,43.0,5.0,0.0,value,0.0,0.0,0.0
387,amd64-microcode-3.20171205.1,0,False,False,False,False,False,0.0,0.0,0.0,0.0,0.0,0,0.0,0.0,0.0
388,binutils-x86-64-linux-gnux32-dbg,0,True,False,True,True,True,864.0,6167.0,1584.0,6167.0,0.0,value,25.0,166.0,42.0
389,language-pack-gnome-crh-base-18.04+20180423,0,False,False,False,False,False,0.0,0.0,0.0,0.0,0.0,0,0.0,0.0,0.0
390,alsa-lib_1.1.3.orig.tar.bz2,0,False,False,False,False,False,0.0,0.0,0.0,0.0,0.0,0,0.0,0.0,0.0
391,language-pack-lv-18.04+20180423,0,False,False,False,False,False,0.0,0.0,0.0,0.0,0.0,0,0.0,0.0,0.0
392,language-pack-gnome-ar-base-18.04+20180423,0,False,False,False,False,False,0.0,0.0,0.0,0.0,0.0,0,0.0,0.0,0.0
393,language-pack-gnome-lv-18.04+20180423,0,False,False,False,False,False,0.0,0.0,0.0,0.0,0.0,0,0.0,0.0,0.0
394,language-pack-fr-base-18.04+20180423,0,False,False,False,False,False,0.0,0.0,0.0,0.0,0.0,0,0.0,0.0,0.0
395,language-pack-ko-18.04+20180423,0,False,False,False,False,False,0.0,0.0,0.0,0.0,0.0,0,0.0,0.0,0.0
396,ppp-2.4.7,0,True,False,False,True,True,67.0,0.0,144.0,0.0,0.0,value,8.0,3.0,4.0
397,e2fsprogs-1.44.1,0,True,False,False,True,True,121.0,0.0,340.0,0.0,0.0,value,21.0,9.0,2.0
398,apport,0,False,False,False,False,False,0.0,0.0,0.0,0.0,0.0,0,0.0,0.0,0.0
399,gnupg2_2.2.4.orig.tar.bz2,0,False,False,False,False,False,0.0,0.0,0.0,0.0,0.0,0,0.0,0.0,0.0
400,libgcrypt20_1.8.1.orig.tar.bz2,0,False,False,False,False,False,0.0,0.0,0.0,0.0,0.0,0,0.0,0.0,0.0
401,ubuntu-report-1.0.11,0,True,False,True,True,False,0.0,25.0,1.0,25.0,0.0,value,0.0,1.0,0.0
402,language-pack-zh-hans-18.04+20180423,0,False,False,False,False,False,0.0,0.0,0.0,0.0,0.0,0,0.0,0.0,0.0
403,zziplib-0.13.62,0,True,False,False,False,False,26.0,0.0,42.0,0.0,0.0,value,0.0,0.0,0.0
404,language-pack-mr-18.04+20180423,0,False,False,False,False,False,0.0,0.0,0.0,0.0,0.0,0,0.0,0.0,0.0
405,language-pack-gnome-ne-base-18.04+20180423,0,False,False,False,False,False,0.0,0.0,0.0,0.0,0.0,0,0.0,0.0,0.0
406,ifupdown-0.8.17ubuntu1,0,True,False,False,False,False,5.0,0.0,8.0,0.0,0.0,value,0.0,0.0,0.0
407,binutils-i686-linux-gnu-dbg,0,True,False,True,True,True,864.0,6167.0,1584.0,6167.0,0.0,value,25.0,166.0,42.0
408,gst-plugins-good1.0-1.14.0,0,True,False,True,True,False,469.0,2.0,610.0,2.0,0.0,value,0.0,127.0,0.0
409,language-pack-gnome-br-base-18.04+20180423,0,False,False,False,False,False,0.0,0.0,0.0,0.0,0.0,0,0.0,0.0,0.0
410,autopoint,0,True,False,False,True,True,767.0,0.0,1028.0,0.0,0.0,value,4.0,29.0,5.0
411,netcat-openbsd-1.187,0,True,False,False,False,False,1.0,0.0,16.0,0.0,0.0,value,0.0,0.0,0.0
412,aodh-api,0,False,False,False,False,False,0.0,0.0,0.0,0.0,0.0,0,0.0,0.0,0.0
413,language-pack-gnome-af-base-18.04+20180423,0,False,False,False,False,False,0.0,0.0,0.0,0.0,0.0,0,0.0,0.0,0.0
414,nbd-3.16.2,0,True,False,False,False,False,11.0,0.0,18.0,0.0,0.0,value,0.0,0.0,0.0
415,gcc-8-8-20180414,0,False,False,False,False,False,0.0,0.0,0.0,0.0,0.0,0,0.0,0.0,0.0
416,language-pack-gnome-he-base-18.04+20180423,0,False,False,False,False,False,0.0,0.0,0.0,0.0,0.0,0,0.0,0.0,0.0
417,libjpeg-turbo-1.5.2,0,True,False,True,False,False,35.0,3.0,110.0,3.0,0.0,value,0.0,0.0,0.0
418,language-pack-gnome-pa-base-18.04+20180423,0,False,False,False,False,False,0.0,0.0,0.0,0.0,0.0,0,0.0,0.0,0.0
419,wget_1.19.4.orig.tar.gz.asc,0,False,False,False,False,False,0.0,0.0,0.0,0.0,0.0,0,0.0,0.0,0.0
420,perl-5.26.1,0,True,False,False,True,True,156.0,0.0,143.0,0.0,0.0,value,9.0,3.0,12.0
421,language-pack-gnome-bs-base-18.04+20180423,0,False,False,False,False,False,0.0,0.0,0.0,0.0,0.0,0,0.0,0.0,0.0
422,language-pack-gnome-mk-18.04+20180423,0,False,False,False,False,False,0.0,0.0,0.0,0.0,0.0,0,0.0,0.0,0.0
423,linux-4.15.0,0,True,False,True,True,True,20885.0,1482.0,26392.0,1482.0,0.0,value,28.0,3486.0,9.0
424,apache2-dev,0,True,False,False,False,True,146.0,0.0,313.0,0.0,0.0,value,1.0,0.0,2.0
425,language-pack-gnome-pa-18.04+20180423,0,False,False,False,False,False,0.0,0.0,0.0,0.0,0.0,0,0.0,0.0,0.0
426,language-pack-gnome-mai-base-18.04+20180423,0,False,False,False,False,False,0.0,0.0,0.0,0.0,0.0,0,0.0,0.0,0.0
427,binutils-powerpc-linux-gnu-dbg,0,True,False,True,True,True,864.0,6167.0,1584.0,6167.0,0.0,value,25.0,166.0,42.0
428,language-pack-gnome-ms-base-18.04+20180423,0,False,False,False,False,False,0.0,0.0,0.0,0.0,0.0,0,0.0,0.0,0.0
429,firefox-59.0.2+build1,0,True,False,True,True,True,14228.0,227.0,3769.0,227.0,1.0,value,96.0,1431.0,57.0
430,language-pack-km-18.04+20180423,0,False,False,False,False,False,0.0,0.0,0.0,0.0,0.0,0,0.0,0.0,0.0
431,barbican-doc,0,False,False,False,False,False,0.0,0.0,0.0,0.0,0.0,0,0.0,0.0,0.0
432,language-pack-gnome-fr-18.04+20180423,0,False,False,False,False,False,0.0,0.0,0.0,0.0,0.0,0,0.0,0.0,0.0
433,language-pack-gnome-es-base-18.04+20180423,0,False,False,False,False,False,0.0,0.0,0.0,0.0,0.0,0,0.0,0.0,0.0
434,language-pack-zh-hans-base-18.04+20180423,0,False,False,False,False,False,0.0,0.0,0.0,0.0,0.0,0,0.0,0.0,0.0
435,python-memcache-1.57,0,False,False,False,False,False,0.0,0.0,0.0,0.0,0.0,0,0.0,0.0,0.0
436,language-pack-gnome-bg-18.04+20180423,0,False,False,False,False,False,0.0,0.0,0.0,0.0,0.0,0,0.0,0.0,0.0
437,language-pack-gnome-as-18.04+20180423,0,False,False,False,False,False,0.0,0.0,0.0,0.0,0.0,0,0.0,0.0,0.0
438,language-pack-hr-base-18.04+20180423,0,False,False,False,False,False,0.0,0.0,0.0,0.0,0.0,0,0.0,0.0,0.0
439,language-pack-es-18.04+20180423,0,False,False,False,False,False,0.0,0.0,0.0,0.0,0.0,0,0.0,0.0,0.0
440,language-pack-gnome-tg-base-18.04+20180423,0,False,False,False,False,False,0.0,0.0,0.0,0.0,0.0,0,0.0,0.0,0.0
441,language-pack-uk-base-18.04+20180423,0,False,False,False,False,False,0.0,0.0,0.0,0.0,0.0,0,0.0,0.0,0.0
442,nova-lxd-17.0.0,0,False,False,False,False,False,0.0,0.0,0.0,0.0,0.0,0,0.0,0.0,0.0
443,bind9-host,0,True,False,False,True,True,505.0,0.0,688.0,0.0,0.0,value,36.0,19.0,290.0
444,binutils-multiarch-dev,0,True,False,True,True,True,864.0,6167.0,1584.0,6167.0,0.0,value,25.0,166.0,42.0
445,language-pack-hr-18.04+20180423,0,False,False,False,False,False,0.0,0.0,0.0,0.0,0.0,0,0.0,0.0,0.0
446,ncurses_6.1.orig.tar.gz.asc,0,False,False,False,False,False,0.0,0.0,0.0,0.0,0.0,0,0.0,0.0,0.0
447,language-pack-gnome-tg-18.04+20180423,0,False,False,False,False,False,0.0,0.0,0.0,0.0,0.0,0,0.0,0.0,0.0
448,language-pack-id-18.04+20180423,0,False,False,False,False,False,0.0,0.0,0.0,0.0,0.0,0,0.0,0.0,0.0
449,libssh-0.8.0~20170825.94fa1e38,0,True,False,False,True,False,53.0,0.0,130.0,0.0,0.0,value,0.0,3.0,0.0
450,linux-meta-aws-4.15.0.1007.7,0,False,False,False,False,False,0.0,0.0,0.0,0.0,0.0,0,0.0,0.0,0.0
451,language-pack-gnome-fur-18.04+20180423,0,False,False,False,False,False,0.0,0.0,0.0,0.0,0.0,0,0.0,0.0,0.0
452,pollinate-4.31,0,False,False,False,False,False,0.0,0.0,0.0,0.0,0.0,0,0.0,0.0,0.0
453,language-pack-ta-18.04+20180423,0,False,False,False,False,False,0.0,0.0,0.0,0.0,0.0,0,0.0,0.0,0.0
454,language-pack-kk-18.04+20180423,0,False,False,False,False,False,0.0,0.0,0.0,0.0,0.0,0,0.0,0.0,0.0
455,language-pack-gnome-or-base-18.04+20180423,0,False,False,False,False,False,0.0,0.0,0.0,0.0,0.0,0,0.0,0.0,0.0
456,tzdata-2018d,0,False,False,False,False,False,0.0,0.0,0.0,0.0,0.0,0,0.0,0.0,0.0
457,language-pack-gnome-fi-18.04+20180423,0,False,False,False,False,False,0.0,0.0,0.0,0.0,0.0,0,0.0,0.0,0.0
458,libapache2-mod-perl2-2.0.10,0,True,False,False,False,False,88.0,0.0,35.0,0.0,0.0,value,0.0,0.0,0.0
459,pulseaudio-11.1,0,True,False,False,True,True,322.0,0.0,382.0,0.0,0.0,value,23.0,48.0,9.0
460,ca-certificates-java,0,False,False,False,False,False,0.0,0.0,0.0,0.0,0.0,0,0.0,0.0,0.0
461,language-pack-gnome-uk-base-18.04+20180423,0,False,False,False,False,False,0.0,0.0,0.0,0.0,0.0,0,0.0,0.0,0.0
462,language-pack-tr-base-18.04+20180423,0,False,False,False,False,False,0.0,0.0,0.0,0.0,0.0,0,0.0,0.0,0.0
463,freerdp2-2.0.0~git20170725.1.1648deb+dfsg1,0,True,False,False,True,True,481.0,0.0,704.0,0.0,0.0,value,16.0,3.0,6.0
464,amd64-microcode,0,False,False,False,False,False,0.0,0.0,0.0,0.0,0.0,0,0.0,0.0,0.0
465,language-pack-pa-18.04+20180423,0,False,False,False,False,False,0.0,0.0,0.0,0.0,0.0,0,0.0,0.0,0.0
466,ncurses-6.1,0,True,False,False,False,True,46.0,0.0,355.0,0.0,0.0,value,1.0,0.0,8.0
467,unbound-1.6.7,0,True,False,False,False,True,105.0,0.0,157.0,0.0,0.0,value,0.0,0.0,2.0
468,language-pack-sr-base-18.04+20180423,0,False,False,False,False,False,0.0,0.0,0.0,0.0,0.0,0,0.0,0.0,0.0
469,binutils-aarch64-linux-gnu,0,True,False,True,True,True,864.0,6167.0,1584.0,6167.0,0.0,value,25.0,166.0,42.0
470,language-pack-gnome-kn-base-18.04+20180423,0,False,False,False,False,False,0.0,0.0,0.0,0.0,0.0,0,0.0,0.0,0.0
471,language-pack-or-18.04+20180423,0,False,False,False,False,False,0.0,0.0,0.0,0.0,0.0,0,0.0,0.0,0.0
472,apt-doc,0,True,False,False,False,True,114.0,0.0,2.0,0.0,0.0,value,2.0,0.0,2.0
473,gpgme1.0-1.10.0,0,True,False,False,False,True,131.0,0.0,128.0,0.0,0.0,value,2.0,0.0,3.0
474,man-db-2.8.3,0,True,False,False,True,False,128.0,0.0,200.0,0.0,0.0,value,0.0,3.0,0.0
475,language-pack-mai-base-18.04+20180423,0,False,False,False,False,False,0.0,0.0,0.0,0.0,0.0,0,0.0,0.0,0.0
476,language-pack-as-18.04+20180423,0,False,False,False,False,False,0.0,0.0,0.0,0.0,0.0,0,0.0,0.0,0.0
477,language-pack-gnome-it-base-18.04+20180423,0,False,False,False,False,False,0.0,0.0,0.0,0.0,0.0,0,0.0,0.0,0.0
478,cinder-12.0.0,0,False,False,False,False,False,0.0,0.0,0.0,0.0,0.0,0,0.0,0.0,0.0
479,language-pack-gnome-kk-base-18.04+20180423,0,False,False,False,False,False,0.0,0.0,0.0,0.0,0.0,0,0.0,0.0,0.0
480,language-pack-gnome-kk-18.04+20180423,0,False,False,False,False,False,0.0,0.0,0.0,0.0,0.0,0,0.0,0.0,0.0
481,language-pack-gnome-hr-18.04+20180423,0,False,False,False,False,False,0.0,0.0,0.0,0.0,0.0,0,0.0,0.0,0.0
482,apache2-data,0,True,False,False,False,True,146.0,0.0,313.0,0.0,0.0,value,1.0,0.0,2.0
483,language-pack-am-18.04+20180423,0,False,False,False,False,False,0.0,0.0,0.0,0.0,0.0,0,0.0,0.0,0.0
484,language-pack-sk-18.04+20180423,0,False,False,False,False,False,0.0,0.0,0.0,0.0,0.0,0,0.0,0.0,0.0
485,language-pack-tg-18.04+20180423,0,False,False,False,False,False,0.0,0.0,0.0,0.0,0.0,0,0.0,0.0,0.0
486,language-pack-gnome-km-18.04+20180423,0,False,False,False,False,False,0.0,0.0,0.0,0.0,0.0,0,0.0,0.0,0.0
487,git-2.17.0,0,True,False,True,True,True,184.0,1.0,411.0,1.0,0.0,value,0.0,11.0,1.0
488,language-pack-am-base-18.04+20180423,0,False,False,False,False,False,0.0,0.0,0.0,0.0,0.0,0,0.0,0.0,0.0
489,requests-2.18.4,0,False,False,False,False,False,0.0,0.0,0.0,0.0,0.0,0,0.0,0.0,0.0
490,language-pack-gnome-ms-18.04+20180423,0,False,False,False,False,False,0.0,0.0,0.0,0.0,0.0,0,0.0,0.0,0.0
491,language-pack-mr-base-18.04+20180423,0,False,False,False,False,False,0.0,0.0,0.0,0.0,0.0,0,0.0,0.0,0.0
492,language-pack-it-base-18.04+20180423,0,False,False,False,False,False,0.0,0.0,0.0,0.0,0.0,0,0.0,0.0,0.0
493,lftp-4.8.1,0,True,False,False,True,False,245.0,0.0,151.0,0.0,0.0,value,0.0,11.0,0.0
494,language-pack-sq-18.04+20180423,0,False,False,False,False,False,0.0,0.0,0.0,0.0,0.0,0,0.0,0.0,0.0
495,lxcfs_3.0.0.orig.tar.gz.asc,0,False,False,False,False,False,0.0,0.0,0.0,0.0,0.0,0,0.0,0.0,0.0
496,aodh-common,0,False,False,False,False,False,0.0,0.0,0.0,0.0,0.0,0,0.0,0.0,0.0
497,fonts-beng-extra-1.0,0,False,False,False,False,False,0.0,0.0,0.0,0.0,0.0,0,0.0,0.0,0.0
498,openssh_7.6p1.orig.tar.gz.asc,0,False,False,False,False,False,0.0,0.0,0.0,0.0,0.0,0,0.0,0.0,0.0
499,language-pack-gnome-sq-18.04+20180423,0,False,False,False,False,False,0.0,0.0,0.0,0.0,0.0,0,0.0,0.0,0.0
500,dkms-2.3,0,True,False,False,False,False,0.0,0.0,1.0,0.0,0.0,value,0.0,0.0,0.0
501,language-pack-gnome-cy-18.04+20180423,0,False,False,False,False,False,0.0,0.0,0.0,0.0,0.0,0,0.0,0.0,0.0
502,wget-1.19.4,0,True,False,False,True,False,189.0,0.0,238.0,0.0,0.0,value,0.0,3.0,0.0
503,neutron-12.0.1,0,False,False,False,False,False,0.0,0.0,0.0,0.0,0.0,0,0.0,0.0,0.0
504,language-pack-nl-18.04+20180423,0,False,False,False,False,False,0.0,0.0,0.0,0.0,0.0,0,0.0,0.0,0.0
505,language-pack-ml-base-18.04+20180423,0,False,False,False,False,False,0.0,0.0,0.0,0.0,0.0,0,0.0,0.0,0.0
506,language-pack-sr-18.04+20180423,0,False,False,False,False,False,0.0,0.0,0.0,0.0,0.0,0,0.0,0.0,0.0
507,language-pack-gu-18.04+20180423,0,False,False,False,False,False,0.0,0.0,0.0,0.0,0.0,0,0.0,0.0,0.0
508,language-pack-gnome-nn-base-18.04+20180423,0,False,False,False,False,False,0.0,0.0,0.0,0.0,0.0,0,0.0,0.0,0.0
509,language-pack-pt-18.04+20180423,0,False,False,False,False,False,0.0,0.0,0.0,0.0,0.0,0,0.0,0.0,0.0
510,apt-1.6.1,0,True,False,False,False,True,114.0,0.0,2.0,0.0,0.0,value,2.0,0.0,2.0
511,language-pack-ja-18.04+20180423,0,False,False,False,False,False,0.0,0.0,0.0,0.0,0.0,0,0.0,0.0,0.0
512,binutils-x86-64-kfreebsd-gnu-dbg,0,True,False,True,True,True,864.0,6167.0,1584.0,6167.0,0.0,value,25.0,166.0,42.0
513,language-pack-dz-base-18.04+20180423,0,False,False,False,False,False,0.0,0.0,0.0,0.0,0.0,0,0.0,0.0,0.0
514,language-pack-ro-base-18.04+20180423,0,False,False,False,False,False,0.0,0.0,0.0,0.0,0.0,0,0.0,0.0,0.0
515,console-setup-1.178ubuntu2,0,False,False,False,False,False,0.0,0.0,0.0,0.0,0.0,0,0.0,0.0,0.0
516,language-pack-my-18.04+20180423,0,False,False,False,False,False,0.0,0.0,0.0,0.0,0.0,0,0.0,0.0,0.0
517,language-pack-gnome-ia-base-18.04+20180423,0,False,False,False,False,False,0.0,0.0,0.0,0.0,0.0,0,0.0,0.0,0.0
518,language-pack-gnome-pl-18.04+20180423,0,False,False,False,False,False,0.0,0.0,0.0,0.0,0.0,0,0.0,0.0,0.0
519,language-pack-ml-18.04+20180423,0,False,False,False,False,False,0.0,0.0,0.0,0.0,0.0,0,0.0,0.0,0.0
520,language-pack-ast-18.04+20180423,0,False,False,False,False,False,0.0,0.0,0.0,0.0,0.0,0,0.0,0.0,0.0
521,zsh-5.4.2,0,True,False,False,False,True,11.0,0.0,89.0,0.0,0.0,value,4.0,0.0,4.0
522,language-pack-he-18.04+20180423,0,False,False,False,False,False,0.0,0.0,0.0,0.0,0.0,0,0.0,0.0,0.0
523,network-manager-1.10.6,0,True,False,False,True,True,533.0,0.0,535.0,0.0,0.0,value,4.0,1.0,8.0
524,binutils-multiarch-dbg,0,True,False,True,True,True,864.0,6167.0,1584.0,6167.0,0.0,value,25.0,166.0,42.0
525,netplan.io-0.36.1,0,True,False,False,False,False,4.0,0.0,5.0,0.0,0.0,value,0.0,0.0,0.0
526,parted-3.2,0,True,False,True,True,True,152.0,1.0,207.0,1.0,0.0,value,0.0,3.0,2.0
527,binutils-multiarch,0,True,False,True,True,True,864.0,6167.0,1584.0,6167.0,0.0,value,25.0,166.0,42.0
528,spice_0.14.0.orig.tar.bz2,0,False,False,False,False,False,0.0,0.0,0.0,0.0,0.0,0,0.0,0.0,0.0
529,language-pack-ar-18.04+20180423,0,False,False,False,False,False,0.0,0.0,0.0,0.0,0.0,0,0.0,0.0,0.0
530,kmod-24,0,True,False,False,False,True,15.0,0.0,67.0,0.0,0.0,value,2.0,0.0,2.0
531,friendly-recovery-0.2.38,0,False,False,False,False,False,0.0,0.0,0.0,0.0,0.0,0,0.0,0.0,0.0
532,strongswan_5.6.2.orig.tar.bz2,0,False,False,False,False,False,0.0,0.0,0.0,0.0,0.0,0,0.0,0.0,0.0
533,cloud-init-18.2-14-g6d48d265,0,False,False,False,False,False,0.0,0.0,0.0,0.0,0.0,0,0.0,0.0,0.0
534,language-pack-bg-base-18.04+20180423,0,False,False,False,False,False,0.0,0.0,0.0,0.0,0.0,0,0.0,0.0,0.0
535,language-pack-bs-18.04+20180423,0,False,False,False,False,False,0.0,0.0,0.0,0.0,0.0,0,0.0,0.0,0.0
536,aodh-6.0.0,0,False,False,False,False,False,0.0,0.0,0.0,0.0,0.0,0,0.0,0.0,0.0
537,language-pack-gnome-am-18.04+20180423,0,False,False,False,False,False,0.0,0.0,0.0,0.0,0.0,0,0.0,0.0,0.0
538,keepalived-1.3.9,0,True,False,False,False,True,75.0,0.0,71.0,0.0,0.0,value,64.0,0.0,16.0
539,keystone-13.0.0,0,False,False,False,False,False,0.0,0.0,0.0,0.0,0.0,0,0.0,0.0,0.0
540,gdm3-3.28.0,0,True,False,False,False,False,47.0,0.0,61.0,0.0,0.0,value,0.0,0.0,0.0
541,language-pack-pt-base-18.04+20180423,0,False,False,False,False,False,0.0,0.0,0.0,0.0,0.0,0,0.0,0.0,0.0
542,language-pack-gnome-zh-hans-18.04+20180423,0,False,False,False,False,False,0.0,0.0,0.0,0.0,0.0,0,0.0,0.0,0.0
543,ubuntu-drivers-common-0.5.2,0,True,False,False,False,False,0.0,0.0,1.0,0.0,0.0,value,0.0,0.0,0.0
544,bubblewrap,0,False,False,False,False,False,0.0,0.0,0.0,0.0,0.0,0,0.0,0.0,0.0
545,exim4-4.90.1,0,True,False,False,True,True,66.0,0.0,168.0,0.0,0.0,value,10.0,112.0,8.0
546,language-pack-te-18.04+20180423,0,False,False,False,False,False,0.0,0.0,0.0,0.0,0.0,0,0.0,0.0,0.0
547,gnupg2-2.2.4,0,True,False,False,True,True,146.0,0.0,333.0,0.0,0.0,value,40.0,1.0,9.0
548,language-pack-cy-18.04+20180423,0,False,False,False,False,False,0.0,0.0,0.0,0.0,0.0,0,0.0,0.0,0.0
549,language-pack-nn-18.04+20180423,0,False,False,False,False,False,0.0,0.0,0.0,0.0,0.0,0,0.0,0.0,0.0
550,binutils-aarch64-linux-gnu-dbg,0,True,False,True,True,True,864.0,6167.0,1584.0,6167.0,0.0,value,25.0,166.0,42.0
551,maas-2.4.0~beta2-6865-gec43e47e6,0,False,False,False,False,False,0.0,0.0,0.0,0.0,0.0,0,0.0,0.0,0.0
552,zziplib_0.13.62.orig.tar.bz2,0,False,False,False,False,False,0.0,0.0,0.0,0.0,0.0,0,0.0,0.0,0.0
553,ubuntu-settings-18.04.5,0,False,False,False,False,False,0.0,0.0,0.0,0.0,0.0,0,0.0,0.0,0.0
554,gnome-control-center-3.28.1,0,True,False,False,False,False,212.0,0.0,236.0,0.0,0.0,value,0.0,0.0,0.0
555,language-pack-gnome-ast-18.04+20180423,0,False,False,False,False,False,0.0,0.0,0.0,0.0,0.0,0,0.0,0.0,0.0
556,linux-kvm-4.15.0,0,True,False,True,True,True,20885.0,1482.0,26392.0,1482.0,0.0,value,28.0,3486.0,9.0
557,language-pack-gnome-as-base-18.04+20180423,0,False,False,False,False,False,0.0,0.0,0.0,0.0,0.0,0,0.0,0.0,0.0
558,exiv2-0.25,0,True,False,False,False,False,26.0,0.0,2.0,0.0,0.0,value,0.0,0.0,0.0
559,linux-aws-4.15.0,0,True,False,True,True,True,20885.0,1482.0,26392.0,1482.0,0.0,value,28.0,3486.0,9.0
560,language-pack-gnome-ug-base-18.04+20180423,0,False,False,False,False,False,0.0,0.0,0.0,0.0,0.0,0,0.0,0.0,0.0
561,language-pack-gnome-mr-18.04+20180423,0,False,False,False,False,False,0.0,0.0,0.0,0.0,0.0,0,0.0,0.0,0.0
562,language-pack-gnome-bn-18.04+20180423,0,False,False,False,False,False,0.0,0.0,0.0,0.0,0.0,0,0.0,0.0,0.0
563,language-pack-gnome-nn-18.04+20180423,0,False,False,False,False,False,0.0,0.0,0.0,0.0,0.0,0,0.0,0.0,0.0
564,ceph-common,0,True,False,True,True,True,2883.0,71.0,1590.0,71.0,1.0,value,23.0,70.0,54.0
565,apache2-utils,0,True,False,False,False,True,146.0,0.0,313.0,0.0,0.0,value,1.0,0.0,2.0
566,openssl_1.1.0g.orig.tar.gz.asc,0,False,False,False,False,False,0.0,0.0,0.0,0.0,0.0,0,0.0,0.0,0.0
567,language-pack-br-base-18.04+20180423,0,False,False,False,False,False,0.0,0.0,0.0,0.0,0.0,0,0.0,0.0,0.0
568,binutils-powerpc-linux-gnu,0,True,False,True,True,True,864.0,6167.0,1584.0,6167.0,0.0,value,25.0,166.0,42.0
569,language-pack-gnome-vi-18.04+20180423,0,False,False,False,False,False,0.0,0.0,0.0,0.0,0.0,0,0.0,0.0,0.0
570,fwupd-1.0.6,0,True,False,False,False,False,85.0,0.0,104.0,0.0,0.0,value,0.0,0.0,0.0
571,ca-certificates,0,False,False,False,False,False,1.0,0.0,0.0,0.0,0.0,value,0.0,0.0,0.0
572,language-pack-gnome-mr-base-18.04+20180423,0,False,False,False,False,False,0.0,0.0,0.0,0.0,0.0,0,0.0,0.0,0.0
573,language-pack-gnome-hu-base-18.04+20180423,0,False,False,False,False,False,0.0,0.0,0.0,0.0,0.0,0,0.0,0.0,0.0
574,ubuntu-keyring-2018.02.28,0,False,False,False,False,False,0.0,0.0,0.0,0.0,0.0,0,0.0,0.0,0.0
575,installation-guide-20160121ubuntu4,0,False,False,False,False,False,0.0,0.0,0.0,0.0,0.0,0,0.0,0.0,0.0
576,openldap-2.4.45+dfsg,0,True,False,False,False,True,168.0,0.0,518.0,0.0,0.0,value,9.0,0.0,10.0
577,amavisd-new,0,False,False,False,False,False,0.0,0.0,0.0,0.0,0.0,0,0.0,0.0,0.0
578,language-pack-gnome-lt-18.04+20180423,0,False,False,False,False,False,0.0,0.0,0.0,0.0,0.0,0,0.0,0.0,0.0
579,language-pack-gnome-nb-18.04+20180423,0,False,False,False,False,False,0.0,0.0,0.0,0.0,0.0,0,0.0,0.0,0.0
580,language-pack-nb-18.04+20180423,0,False,False,False,False,False,0.0,0.0,0.0,0.0,0.0,0,0.0,0.0,0.0
581,clamav-0.99.4+addedllvm,0,True,False,False,True,True,759.0,0.0,367.0,0.0,0.0,value,39.0,3.0,61.0
582,fonts-orya-extra-2.0,0,False,False,False,False,False,0.0,0.0,0.0,0.0,0.0,0,0.0,0.0,0.0
583,wavpack_5.1.0.orig.tar.bz2,0,False,False,False,False,False,0.0,0.0,0.0,0.0,0.0,0,0.0,0.0,0.0
584,python-wsme-0.9.2,0,False,False,False,False,False,0.0,0.0,0.0,0.0,0.0,0,0.0,0.0,0.0
585,libreoffice-6.0.3,0,True,False,True,False,True,678.0,9.0,58.0,9.0,0.0,value,20.0,0.0,7.0
586,snapd-2.32.5+18.04,0,True,False,True,False,False,48.0,4.0,81.0,4.0,0.0,value,0.0,0.0,0.0
587,nvidia-settings-390.42,0,True,False,False,False,True,105.0,0.0,120.0,0.0,0.0,value,10.0,0.0,11.0
588,language-pack-sq-base-18.04+20180423,0,False,False,False,False,False,0.0,0.0,0.0,0.0,0.0,0,0.0,0.0,0.0
589,desktop-file-utils-0.23,0,True,False,False,False,False,3.0,0.0,6.0,0.0,0.0,value,0.0,0.0,0.0
590,language-pack-gnome-el-18.04+20180423,0,False,False,False,False,False,0.0,0.0,0.0,0.0,0.0,0,0.0,0.0,0.0
591,pkgbinarymangler-138,0,True,False,False,False,False,0.0,0.0,1.0,0.0,0.0,value,0.0,0.0,0.0
592,language-pack-oc-base-18.04+20180423,0,False,False,False,False,False,0.0,0.0,0.0,0.0,0.0,0,0.0,0.0,0.0
593,libreoffice-l10n-6.0.3,0,True,False,True,False,True,678.0,9.0,58.0,9.0,0.0,value,20.0,0.0,7.0
594,language-pack-bs-base-18.04+20180423,0,False,False,False,False,False,0.0,0.0,0.0,0.0,0.0,0,0.0,0.0,0.0
595,apt-config-icons-large,0,True,False,False,False,False,68.0,0.0,42.0,0.0,0.0,value,0.0,0.0,0.0
596,bluez-dbg,0,True,False,False,True,True,260.0,0.0,429.0,0.0,0.0,value,8.0,1.0,9.0
597,curl-7.58.0,0,True,False,False,True,True,195.0,0.0,433.0,0.0,0.0,value,3.0,1.0,1.0
598,libxml2-2.9.4+dfsg1,0,True,False,False,False,True,73.0,0.0,129.0,0.0,0.0,value,12.0,0.0,18.0
599,python-django-1.11.11,0,False,False,False,False,False,0.0,0.0,0.0,0.0,0.0,0,0.0,0.0,0.0
600,language-pack-et-18.04+20180423,0,False,False,False,False,False,0.0,0.0,0.0,0.0,0.0,0,0.0,0.0,0.0
601,language-pack-gnome-gd-18.04+20180423,0,False,False,False,False,False,0.0,0.0,0.0,0.0,0.0,0,0.0,0.0,0.0
602,bind9-9.11.3+dfsg,0,True,False,False,True,True,505.0,0.0,688.0,0.0,0.0,value,36.0,19.0,290.0
603,mokutil-0.3.0,0,True,False,False,False,False,2.0,0.0,6.0,0.0,0.0,value,0.0,0.0,0.0
604,language-pack-gnome-br-18.04+20180423,0,False,False,False,False,False,0.0,0.0,0.0,0.0,0.0,0,0.0,0.0,0.0
605,language-pack-mk-18.04+20180423,0,False,False,False,False,False,0.0,0.0,0.0,0.0,0.0,0,0.0,0.0,0.0
606,im-config-0.34,0,False,False,False,False,False,0.0,0.0,0.0,0.0,0.0,0,0.0,0.0,0.0
607,language-pack-sl-18.04+20180423,0,False,False,False,False,False,0.0,0.0,0.0,0.0,0.0,0,0.0,0.0,0.0
608,dovecot-2.2.33.2,0,True,False,False,False,True,998.0,0.0,1764.0,0.0,0.0,value,4.0,0.0,17.0
609,language-pack-gnome-crh-18.04+20180423,0,False,False,False,False,False,0.0,0.0,0.0,0.0,0.0,0,0.0,0.0,0.0
610,gnupg2_2.2.4-1ubuntu1.debian.tar.bz2,0,False,False,False,False,False,0.0,0.0,0.0,0.0,0.0,0,0.0,0.0,0.0
611,file-5.32,0,True,False,False,False,False,9.0,0.0,33.0,0.0,0.0,value,0.0,0.0,0.0
612,language-pack-gnome-ro-base-18.04+20180423,0,False,False,False,False,False,0.0,0.0,0.0,0.0,0.0,0,0.0,0.0,0.0
613,ubuntu-release-upgrader-18.04.17,0,False,False,False,False,False,0.0,0.0,0.0,0.0,0.0,0,0.0,0.0,0.0
614,libgtop2-2.38.0,0,True,False,False,False,True,87.0,0.0,385.0,0.0,0.0,value,5.0,0.0,2.0
615,secureboot-db-1.1,0,False,False,False,False,False,0.0,0.0,0.0,0.0,0.0,0,0.0,0.0,0.0
616,language-pack-en-18.04+20180423,0,False,False,False,False,False,0.0,0.0,0.0,0.0,0.0,0,0.0,0.0,0.0
617,language-pack-en-base-18.04+20180423,0,False,False,False,False,False,0.0,0.0,0.0,0.0,0.0,0,0.0,0.0,0.0
618,language-pack-eo-18.04+20180423,0,False,False,False,False,False,0.0,0.0,0.0,0.0,0.0,0,0.0,0.0,0.0
619,language-pack-hi-18.04+20180423,0,False,False,False,False,False,0.0,0.0,0.0,0.0,0.0,0,0.0,0.0,0.0
620,language-pack-gnome-zh-hans-base-18.04+20180423,0,False,False,False,False,False,0.0,0.0,0.0,0.0,0.0,0,0.0,0.0,0.0
621,language-pack-gnome-eu-base-18.04+20180423,0,False,False,False,False,False,0.0,0.0,0.0,0.0,0.0,0,0.0,0.0,0.0
622,language-pack-gnome-dz-18.04+20180423,0,False,False,False,False,False,0.0,0.0,0.0,0.0,0.0,0,0.0,0.0,0.0
623,language-pack-ms-18.04+20180423,0,False,False,False,False,False,0.0,0.0,0.0,0.0,0.0,0,0.0,0.0,0.0
624,thunderbird_52.7.0+build1.orig.tar.bz2,0,False,False,False,False,False,0.0,0.0,0.0,0.0,0.0,0,0.0,0.0,0.0
625,base-files-10.1ubuntu2,0,False,False,False,False,False,0.0,0.0,0.0,0.0,0.0,0,0.0,0.0,0.0
626,apparmor-notify,0,True,False,False,True,False,33.0,0.0,126.0,0.0,0.0,value,0.0,2.0,0.0
627,gcc-7-7.3.0,0,False,False,False,False,False,0.0,0.0,0.0,0.0,0.0,0,0.0,0.0,0.0
628,ceph-12.2.4,0,True,False,True,True,True,2883.0,71.0,1590.0,71.0,1.0,value,23.0,70.0,54.0
629,language-pack-gnome-gu-18.04+20180423,0,False,False,False,False,False,0.0,0.0,0.0,0.0,0.0,0,0.0,0.0,0.0
630,language-pack-gnome-gd-base-18.04+20180423,0,False,False,False,False,False,0.0,0.0,0.0,0.0,0.0,0,0.0,0.0,0.0
631,language-pack-gnome-nl-base-18.04+20180423,0,False,False,False,False,False,0.0,0.0,0.0,0.0,0.0,0,0.0,0.0,0.0
632,language-pack-gnome-be-base-18.04+20180423,0,False,False,False,False,False,0.0,0.0,0.0,0.0,0.0,0,0.0,0.0,0.0
633,language-pack-ga-18.04+20180423,0,False,False,False,False,False,0.0,0.0,0.0,0.0,0.0,0,0.0,0.0,0.0
634,language-pack-gnome-dz-base-18.04+20180423,0,False,False,False,False,False,0.0,0.0,0.0,0.0,0.0,0,0.0,0.0,0.0
635,binutils-x86-64-linux-gnux32,0,True,False,True,True,True,864.0,6167.0,1584.0,6167.0,0.0,value,25.0,166.0,42.0
636,gedit-3.28.1,0,True,False,False,False,False,89.0,0.0,93.0,0.0,0.0,value,0.0,0.0,0.0
637,language-pack-gnome-ja-base-18.04+20180423,0,False,False,False,False,False,0.0,0.0,0.0,0.0,0.0,0,0.0,0.0,0.0
638,cloud-initramfs-tools-0.40ubuntu1,0,False,False,False,False,False,0.0,0.0,0.0,0.0,0.0,0,0.0,0.0,0.0
639,language-pack-be-18.04+20180423,0,False,False,False,False,False,0.0,0.0,0.0,0.0,0.0,0,0.0,0.0,0.0
640,lxc_3.0.0.orig.tar.gz.asc,0,False,False,False,False,False,0.0,0.0,0.0,0.0,0.0,0,0.0,0.0,0.0
641,language-pack-gnome-sl-base-18.04+20180423,0,False,False,False,False,False,0.0,0.0,0.0,0.0,0.0,0,0.0,0.0,0.0
642,fonts-deva-extra-3.0,0,False,False,False,False,False,0.0,0.0,0.0,0.0,0.0,0,0.0,0.0,0.0
643,gvfs-1.36.1,0,True,False,False,False,False,146.0,0.0,173.0,0.0,0.0,value,0.0,0.0,0.0
644,golang-1.10-1.10.1,0,True,False,True,False,True,18.0,443.0,101.0,443.0,0.0,value,16.0,0.0,9.0
645,language-pack-ro-18.04+20180423,0,False,False,False,False,False,0.0,0.0,0.0,0.0,0.0,0,0.0,0.0,0.0
646,language-pack-gnome-pl-base-18.04+20180423,0,False,False,False,False,False,0.0,0.0,0.0,0.0,0.0,0,0.0,0.0,0.0
647,gnome-software-3.28.1,0,True,False,False,False,False,109.0,0.0,182.0,0.0,0.0,value,0.0,0.0,0.0
648,gnome-shell-3.28.1,0,True,False,False,False,False,93.0,0.0,86.0,0.0,0.0,value,0.0,0.0,0.0
649,language-pack-sv-18.04+20180423,0,False,False,False,False,False,0.0,0.0,0.0,0.0,0.0,0,0.0,0.0,0.0
650,language-pack-it-18.04+20180423,0,False,False,False,False,False,0.0,0.0,0.0,0.0,0.0,0,0.0,0.0,0.0
651,language-pack-tg-base-18.04+20180423,0,False,False,False,False,False,0.0,0.0,0.0,0.0,0.0,0,0.0,0.0,0.0
652,language-pack-gnome-be-18.04+20180423,0,False,False,False,False,False,0.0,0.0,0.0,0.0,0.0,0,0.0,0.0,0.0
653,language-pack-cy-base-18.04+20180423,0,False,False,False,False,False,0.0,0.0,0.0,0.0,0.0,0,0.0,0.0,0.0
654,psmisc-23.1,0,True,False,False,True,False,7.0,0.0,9.0,0.0,0.0,value,0.0,1.0,0.0
655,debhelper-11.1.6ubuntu1,0,False,False,False,False,False,0.0,0.0,0.0,0.0,0.0,0,0.0,0.0,0.0
656,dh-golang-1.34,0,False,False,False,False,False,0.0,0.0,0.0,0.0,0.0,0,0.0,0.0,0.0
657,apache2-dbg,0,True,False,False,False,True,146.0,0.0,313.0,0.0,0.0,value,1.0,0.0,2.0
658,landscape-client-18.01,0,True,False,False,False,False,0.0,0.0,1.0,0.0,0.0,value,0.0,0.0,0.0
659,walinuxagent-2.2.21+really2.2.20,0,False,False,False,False,False,0.0,0.0,0.0,0.0,0.0,0,0.0,0.0,0.0
660,language-pack-ne-base-18.04+20180423,0,False,False,False,False,False,0.0,0.0,0.0,0.0,0.0,0,0.0,0.0,0.0
661,ca-certificates-java-20170930ubuntu1,0,False,False,False,False,False,0.0,0.0,0.0,0.0,0.0,0,0.0,0.0,0.0
662,squashfs-tools-4.3,0,True,False,False,False,False,28.0,0.0,42.0,0.0,0.0,value,0.0,0.0,0.0
663,mesa_18.0.0~rc5.orig.tar.gz.asc,0,False,False,False,False,False,0.0,0.0,0.0,0.0,0.0,0,0.0,0.0,0.0
664,language-pack-gnome-ml-18.04+20180423,0,False,False,False,False,False,0.0,0.0,0.0,0.0,0.0,0,0.0,0.0,0.0
665,gnome-terminal-3.28.1,0,True,False,False,False,False,40.0,0.0,48.0,0.0,0.0,value,0.0,0.0,0.0
666,language-pack-gnome-cy-base-18.04+20180423,0,False,False,False,False,False,0.0,0.0,0.0,0.0,0.0,0,0.0,0.0,0.0
667,gnu-efi-3.0.4,0,True,False,True,True,False,66.0,23.0,60.0,23.0,0.0,value,0.0,4.0,0.0
668,haproxy-1.8.8,0,True,False,False,True,True,174.0,0.0,127.0,0.0,0.0,value,3.0,6.0,1.0
669,linux-signed-oem-4.15.0,0,False,False,False,False,False,0.0,0.0,0.0,0.0,0.0,0,0.0,0.0,0.0
670,e2fsprogs_1.44.1.orig.tar.gz.asc,0,False,False,False,False,False,0.0,0.0,0.0,0.0,0.0,0,0.0,0.0,0.0
671,apt-config-icons-large-hidpi,0,True,False,False,False,False,68.0,0.0,42.0,0.0,0.0,value,0.0,0.0,0.0
672,openssh-7.6p1,0,True,False,False,False,True,136.0,0.0,322.0,0.0,0.0,value,2.0,0.0,2.0
673,imagemagick-6.9.7.4+dfsg,0,True,False,False,False,True,192.0,0.0,408.0,0.0,0.0,value,13.0,0.0,6.0
674,postfix-3.3.0,0,True,False,False,False,True,308.0,0.0,634.0,0.0,0.0,value,4.0,0.0,2.0
675,amavisd-new-2.11.0,0,False,False,False,False,False,0.0,0.0,0.0,0.0,0.0,0,0.0,0.0,0.0
676,wpa-2.6,0,True,False,False,False,True,285.0,0.0,430.0,0.0,0.0,value,9.0,0.0,7.0
677,language-pack-gnome-te-18.04+20180423,0,False,False,False,False,False,0.0,0.0,0.0,0.0,0.0,0,0.0,0.0,0.0
678,apturl,0,False,False,False,False,False,0.0,0.0,0.0,0.0,0.0,0,0.0,0.0,0.0
679,language-pack-gd-18.04+20180423,0,False,False,False,False,False,0.0,0.0,0.0,0.0,0.0,0,0.0,0.0,0.0
680,libgcrypt20_1.8.1.orig.tar.bz2.asc,0,False,False,False,False,False,0.0,0.0,0.0,0.0,0.0,0,0.0,0.0,0.0
681,language-pack-gnome-sr-18.04+20180423,0,False,False,False,False,False,0.0,0.0,0.0,0.0,0.0,0,0.0,0.0,0.0
682,glib2.0-2.56.1,0,True,False,False,True,True,431.0,0.0,757.0,0.0,0.0,value,4.0,158.0,12.0
683,language-pack-gnome-tr-18.04+20180423,0,False,False,False,False,False,0.0,0.0,0.0,0.0,0.0,0,0.0,0.0,0.0
684,language-pack-oc-18.04+20180423,0,False,False,False,False,False,0.0,0.0,0.0,0.0,0.0,0,0.0,0.0,0.0
685,language-pack-ja-base-18.04+20180423,0,False,False,False,False,False,0.0,0.0,0.0,0.0,0.0,0,0.0,0.0,0.0
686,language-pack-gnome-nl-18.04+20180423,0,False,False,False,False,False,0.0,0.0,0.0,0.0,0.0,0,0.0,0.0,0.0
687,evolution-data-server-3.28.1,0,True,False,False,True,False,417.0,0.0,574.0,0.0,0.0,value,0.0,2.0,0.0
688,texlive-bin-2017.20170613.44572,0,True,False,False,True,True,1045.0,0.0,1113.0,0.0,0.0,value,6.0,15.0,6.0
689,command-not-found-18.04.4,0,False,False,False,False,False,0.0,0.0,0.0,0.0,0.0,0,0.0,0.0,0.0
690,grub2-2.02,0,True,False,True,True,True,768.0,176.0,1139.0,176.0,0.0,value,1.0,248.0,5.0
691,language-pack-gnome-eu-18.04+20180423,0,False,False,False,False,False,0.0,0.0,0.0,0.0,0.0,0,0.0,0.0,0.0
692,language-pack-eu-18.04+20180423,0,False,False,False,False,False,0.0,0.0,0.0,0.0,0.0,0,0.0,0.0,0.0
693,gnome-desktop3-3.28.1,0,True,False,False,False,False,20.0,0.0,31.0,0.0,0.0,value,0.0,0.0,0.0
694,language-pack-gnome-es-18.04+20180423,0,False,False,False,False,False,0.0,0.0,0.0,0.0,0.0,0,0.0,0.0,0.0
695,software-properties-0.96.24.32.1,0,False,False,False,False,False,0.0,0.0,0.0,0.0,0.0,0,0.0,0.0,0.0
696,binutils-arm-linux-gnueabihf,0,True,False,True,True,True,864.0,6167.0,1584.0,6167.0,0.0,value,25.0,166.0,42.0
697,language-pack-el-18.04+20180423,0,False,False,False,False,False,0.0,0.0,0.0,0.0,0.0,0,0.0,0.0,0.0
698,ceilometer-agent-central,0,False,False,False,False,False,0.0,0.0,0.0,0.0,0.0,0,0.0,0.0,0.0
699,udisks2-2.7.6,0,True,False,False,False,False,90.0,0.0,92.0,0.0,0.0,value,0.0,0.0,0.0
700,language-pack-ku-base-18.04+20180423,0,False,False,False,False,False,0.0,0.0,0.0,0.0,0.0,0,0.0,0.0,0.0
701,language-pack-de-18.04+20180423,0,False,False,False,False,False,0.0,0.0,0.0,0.0,0.0,0,0.0,0.0,0.0
702,gnome-characters-3.28.0,0,True,False,False,False,False,168.0,0.0,163.0,0.0,0.0,value,0.0,0.0,0.0
703,pango1.0-1.40.14,0,True,False,False,False,False,67.0,0.0,92.0,0.0,0.0,value,0.0,0.0,0.0
704,language-pack-id-base-18.04+20180423,0,False,False,False,False,False,0.0,0.0,0.0,0.0,0.0,0,0.0,0.0,0.0
705,language-pack-fur-18.04+20180423,0,False,False,False,False,False,0.0,0.0,0.0,0.0,0.0,0,0.0,0.0,0.0
706,language-pack-gnome-mai-18.04+20180423,0,False,False,False,False,False,0.0,0.0,0.0,0.0,0.0,0,0.0,0.0,0.0
707,cinder-api,0,False,False,False,False,False,0.0,0.0,0.0,0.0,0.0,0,0.0,0.0,0.0
708,binutils-powerpc64le-linux-gnu-dbg,0,True,False,True,True,True,864.0,6167.0,1584.0,6167.0,0.0,value,25.0,166.0,42.0
709,ubuntu-themes-16.10+18.04.20180421.1,0,False,False,False,False,False,0.0,0.0,0.0,0.0,0.0,0,0.0,0.0,0.0
710,fonts-liberation-1.07.4,0,False,False,False,False,False,0.0,0.0,0.0,0.0,0.0,0,0.0,0.0,0.0
711,targets,0,False,False,False,False,False,0.0,0.0,0.0,0.0,0.0,0,0.0,0.0,0.0
712,language-pack-gnome-ml-base-18.04+20180423,0,False,False,False,False,False,0.0,0.0,0.0,0.0,0.0,0,0.0,0.0,0.0
713,poppler-0.62.0,0,True,False,False,True,False,224.0,0.0,21.0,0.0,0.0,value,0.0,3.0,0.0
714,language-pack-af-base-18.04+20180423,0,False,False,False,False,False,0.0,0.0,0.0,0.0,0.0,0,0.0,0.0,0.0
715,shotwell-0.28.2,0,True,False,False,False,False,5.0,0.0,241.0,0.0,0.0,value,0.0,0.0,0.0
716,linux-meta-kvm-4.15.0.1008.8,0,False,False,False,False,False,0.0,0.0,0.0,0.0,0.0,0,0.0,0.0,0.0
717,apport-gtk,0,False,False,False,False,False,0.0,0.0,0.0,0.0,0.0,0,0.0,0.0,0.0
718,mozjs52-52.3.1,0,True,False,True,True,True,1485.0,86.0,955.0,86.0,0.0,value,27.0,33.0,30.0
719,language-pack-eu-base-18.04+20180423,0,False,False,False,False,False,0.0,0.0,0.0,0.0,0.0,0,0.0,0.0,0.0
720,language-pack-gnome-sl-18.04+20180423,0,False,False,False,False,False,0.0,0.0,0.0,0.0,0.0,0,0.0,0.0,0.0
721,net-snmp-5.7.3+dfsg,0,True,False,False,False,True,753.0,0.0,624.0,0.0,0.0,value,6.0,0.0,8.0
722,language-pack-km-base-18.04+20180423,0,False,False,False,False,False,0.0,0.0,0.0,0.0,0.0,0,0.0,0.0,0.0
723,libxkbcommon-0.8.0,0,True,False,False,False,False,32.0,0.0,60.0,0.0,0.0,value,0.0,0.0,0.0
724,language-pack-gnome-id-18.04+20180423,0,False,False,False,False,False,0.0,0.0,0.0,0.0,0.0,0,0.0,0.0,0.0
725,heat-10.0.0,0,False,False,False,False,False,0.0,0.0,0.0,0.0,0.0,0,0.0,0.0,0.0
726,language-pack-ga-base-18.04+20180423,0,False,False,False,False,False,0.0,0.0,0.0,0.0,0.0,0,0.0,0.0,0.0
727,language-pack-bn-base-18.04+20180423,0,False,False,False,False,False,0.0,0.0,0.0,0.0,0.0,0,0.0,0.0,0.0
728,language-pack-hu-base-18.04+20180423,0,False,False,False,False,False,0.0,0.0,0.0,0.0,0.0,0,0.0,0.0,0.0
729,barbican-keystone-listener,0,False,False,False,False,False,0.0,0.0,0.0,0.0,0.0,0,0.0,0.0,0.0
730,udisks2_2.7.6.orig.tar.bz2,0,False,False,False,False,False,0.0,0.0,0.0,0.0,0.0,0,0.0,0.0,0.0
731,language-pack-gnome-fr-base-18.04+20180423,0,False,False,False,False,False,0.0,0.0,0.0,0.0,0.0,0,0.0,0.0,0.0
732,fonts-gujr-extra-1.0,0,False,False,False,False,False,0.0,0.0,0.0,0.0,0.0,0,0.0,0.0,0.0
733,binutils,0,True,False,True,True,True,864.0,6167.0,1584.0,6167.0,0.0,value,25.0,166.0,42.0
734,language-pack-gl-base-18.04+20180423,0,False,False,False,False,False,0.0,0.0,0.0,0.0,0.0,0,0.0,0.0,0.0
735,appstream-0.12.0,0,True,False,False,False,False,68.0,0.0,42.0,0.0,0.0,value,0.0,0.0,0.0
736,language-pack-gnome-ar-18.04+20180423,0,False,False,False,False,False,0.0,0.0,0.0,0.0,0.0,0,0.0,0.0,0.0
737,language-pack-gnome-gl-18.04+20180423,0,False,False,False,False,False,0.0,0.0,0.0,0.0,0.0,0,0.0,0.0,0.0
738,bind9-doc,0,True,False,False,True,True,505.0,0.0,688.0,0.0,0.0,value,36.0,19.0,290.0
739,wireless-regdb-2016.06.10,0,False,False,False,False,False,0.0,0.0,0.0,0.0,0.0,0,0.0,0.0,0.0
740,linux-signed-4.15.0,0,False,False,False,False,False,0.0,0.0,0.0,0.0,0.0,0,0.0,0.0,0.0
741,apt,0,True,False,False,False,True,114.0,0.0,2.0,0.0,0.0,value,2.0,0.0,2.0
742,apache2-ssl-dev,0,True,False,False,False,True,146.0,0.0,313.0,0.0,0.0,value,1.0,0.0,2.0
743,language-pack-vi-18.04+20180423,0,False,False,False,False,False,0.0,0.0,0.0,0.0,0.0,0,0.0,0.0,0.0
744,snapd-glib-1.39,0,True,False,False,False,False,76.0,0.0,52.0,0.0,0.0,value,0.0,0.0,0.0
745,usbmuxd-1.1.0,0,True,False,False,False,False,8.0,0.0,9.0,0.0,0.0,value,0.0,0.0,0.0
746,binutils-s390x-linux-gnu,0,True,False,True,True,True,864.0,6167.0,1584.0,6167.0,0.0,value,25.0,166.0,42.0
747,guile-2.0-2.0.13+1,0,True,False,False,True,True,220.0,0.0,276.0,0.0,0.0,value,1.0,6.0,4.0
748,language-pack-gnome-de-18.04+20180423,0,False,False,False,False,False,0.0,0.0,0.0,0.0,0.0,0,0.0,0.0,0.0
749,mdadm-4.0,0,True,False,False,False,True,14.0,0.0,49.0,0.0,0.0,value,9.0,0.0,2.0
750,lshw-02.18,0,True,False,False,True,False,50.0,0.0,4.0,0.0,0.0,value,0.0,1.0,0.0
751,mozjs52_52.3.1.orig.tar.bz2,0,False,False,False,False,False,0.0,0.0,0.0,0.0,0.0,0,0.0,0.0,0.0
752,openipmi-2.0.22,0,True,False,False,False,True,85.0,0.0,140.0,0.0,0.0,value,3.0,0.0,1.0
753,language-pack-gnome-te-base-18.04+20180423,0,False,False,False,False,False,0.0,0.0,0.0,0.0,0.0,0,0.0,0.0,0.0
754,linux-azure-4.15.0,0,True,False,True,True,True,20891.0,1482.0,26398.0,1482.0,0.0,value,28.0,3486.0,9.0
755,language-pack-gnome-an-18.04+20180423,0,False,False,False,False,False,0.0,0.0,0.0,0.0,0.0,0,0.0,0.0,0.0
